{ "type": "FeatureCollection",
  "features": [
      { "type": "Feature",
         "geometry": {
           "type": "Polygon",
           "coordinates": 
              [[[106.9169891,-6.1190645],[106.9188646,-6.1191039],[106.9188919,-6.1195821],[106.9189872,-6.1196105],[106.9197842,-6.1192937],[106.9206855,-6.1190147],[106.920816,-6.1196352],[106.9208514,-6.1202826],[106.9211222,-6.120231],[106.9214017,-6.1201587],[106.9214724,-6.120212],[106.9213638,-6.1212173],[106.9213911,-6.1214731],[106.921463,-6.1219681],[106.9215242,-6.1224382],[106.9214392,-6.1232707],[106.9214992,-6.1238594],[106.9215808,-6.1245054],[106.9216057,-6.1251973],[106.9213469,-6.1253423],[106.9212438,-6.1253993],[106.9206269,-6.1256657],[106.9202433,-6.1257085],[106.920336,-6.126715],[106.920158,-6.126666],[106.919957,-6.126538],[106.9196456,-6.126561],[106.919536,-6.126756],[106.919447,-6.12712],[106.919317,-6.1274734],[106.91907,-6.127841],[106.9187719,-6.1281267],[106.9186104,-6.128351],[106.918582,-6.128736],[106.9183691,-6.1292931],[106.918347,-6.129492],[106.9184904,-6.1305523],[106.918521,-6.130965],[106.918538,-6.131167],[106.9187106,-6.1313537],[106.918927,-6.131434],[106.91906,-6.1315068],[106.9191916,-6.1315838],[106.9193133,-6.1317759],[106.9194206,-6.1320178],[106.919549,-6.132089],[106.9195566,-6.132153],[106.9194564,-6.132587],[106.9192916,-6.1331289],[106.9192201,-6.1333537],[106.9191587,-6.133547],[106.9186049,-6.1342161],[106.918512,-6.134672],[106.9183902,-6.1348493],[106.9182014,-6.1350067],[106.918018,-6.13517],[106.917983,-6.135226],[106.917932,-6.135618],[106.917274,-6.1364358],[106.917167,-6.13682],[106.9172311,-6.1370761],[106.9180515,-6.1370054],[106.9196319,-6.1368425],[106.9202228,-6.1367584],[106.9205371,-6.1367411],[106.9216276,-6.1366933],[106.9231049,-6.1366202],[106.9231471,-6.1371976],[106.923794,-6.137158],[106.924281,-6.137149],[106.924846,-6.137201],[106.9251092,-6.137246],[106.925958,-6.137391],[106.9261797,-6.1374515],[106.926515,-6.137543],[106.927102,-6.137703],[106.9273635,-6.1377129],[106.928234,-6.137746],[106.929891,-6.137787],[106.930587,-6.137803],[106.93155,-6.137825],[106.93457,-6.137158],[106.9362513,-6.1367573],[106.9356571,-6.1358888],[106.9351713,-6.135136],[106.9340286,-6.1335434],[106.9335839,-6.1329004],[106.9323719,-6.1312397],[106.9312907,-6.1298947],[106.9304377,-6.1286179],[106.9301363,-6.1280829],[106.9296724,-6.1274011],[106.9291777,-6.1267433],[106.9281838,-6.1254737],[106.9273672,-6.1239979],[106.9267286,-6.1223519],[106.9263017,-6.121212],[106.9260238,-6.1202081],[106.9253743,-6.1178623],[106.9246436,-6.1152194],[106.9245259,-6.1147491],[106.9244254,-6.1144303],[106.9241937,-6.1136042],[106.9238763,-6.112548],[106.9236526,-6.1118875],[106.9234072,-6.1110931],[106.9231911,-6.1103215],[106.9229998,-6.109785],[106.9228184,-6.1091001],[106.9227808,-6.1089855],[106.9226903,-6.1087185],[106.9224589,-6.108036],[106.9215947,-6.108023],[106.9212361,-6.1080617],[106.920301,-6.1081628],[106.919276,-6.108101],[106.9191476,-6.1081099],[106.9187425,-6.1081127],[106.9186525,-6.1081198],[106.9185192,-6.1081563],[106.918246,-6.108174],[106.917436,-6.108268],[106.9174214,-6.1086985],[106.9174095,-6.1089764],[106.917396,-6.109183],[106.9173947,-6.1093306],[106.9173782,-6.1096085],[106.9173727,-6.1098381],[106.9173429,-6.1106295],[106.9173318,-6.1109313],[106.9173045,-6.1116726],[106.9172834,-6.1120859],[106.9172721,-6.1124919],[106.9172512,-6.1128429],[106.917232,-6.1131638],[106.9172135,-6.1136013],[106.9172218,-6.1137949],[106.917208,-6.1140299],[106.9171942,-6.1142376],[106.9171776,-6.114421],[106.9171691,-6.1146152],[106.9171569,-6.1147982],[106.9171423,-6.1150172],[106.9171276,-6.115238],[106.9171184,-6.1153443],[106.9171094,-6.1156859],[106.9171017,-6.1159762],[106.9170954,-6.1162161],[106.9170863,-6.1164665],[106.9170788,-6.116671],[106.9170714,-6.1168726],[106.9170643,-6.1170667],[106.917056,-6.1172944],[106.9170488,-6.117493],[106.9170408,-6.1177112],[106.9170338,-6.1179038],[106.9170266,-6.1181005],[106.9170172,-6.118315],[106.9170124,-6.1184897],[106.9170068,-6.118643],[106.9169974,-6.1188679],[106.9169891,-6.1190645]]]
         }
      }
    ]
  }