{ "type": "FeatureCollection",
    "features": [
      { "type": "Feature",
         "geometry": {
           "type": "Polygon",
           "coordinates": 
              [[[106.8440239,-6.2148535],[106.8446171,-6.2151129],[106.845063,-6.2152686],[106.845517,-6.2155277],[106.8460205,-6.2158527],[106.8462101,-6.2159567],[106.8462459,-6.2159646],[106.8468386,-6.2160176],[106.8470553,-6.216033],[106.8470411,-6.2162311],[106.847208,-6.2162429],[106.8476704,-6.2164873],[106.8478904,-6.2160757],[106.8486168,-6.2164596],[106.8487673,-6.2165377],[106.8496305,-6.2173329],[106.8496272,-6.2182822],[106.8497719,-6.2183411],[106.8504726,-6.2184968],[106.8507648,-6.2185631],[106.8509078,-6.218688],[106.8510228,-6.2188198],[106.8511596,-6.2189784],[106.8512915,-6.2190714],[106.8513825,-6.2190661],[106.8514855,-6.2190554],[106.8516302,-6.2190349],[106.8518587,-6.2191026],[106.8521484,-6.2191263],[106.8522968,-6.2191147],[106.8525094,-6.2191036],[106.8527211,-6.2190659],[106.8527782,-6.2190152],[106.8531758,-6.2186638],[106.8532214,-6.218636],[106.8535885,-6.2182993],[106.8540246,-6.2178951],[106.8540567,-6.2178546],[106.8546904,-6.2170556],[106.8549561,-6.2167295],[106.8553739,-6.2162604],[106.8560789,-6.2154689],[106.8565214,-6.2148026],[106.8565665,-6.2147064],[106.8567752,-6.2147636],[106.8568545,-6.2146553],[106.856946,-6.2145417],[106.8570494,-6.2143648],[106.8570858,-6.2143024],[106.857146,-6.2141886],[106.857344,-6.213976],[106.8575168,-6.2137781],[106.8576389,-6.2138],[106.857783,-6.213818],[106.8578506,-6.2138018],[106.8580741,-6.2137113],[106.8582147,-6.2136577],[106.8583233,-6.2135066],[106.8583063,-6.2134419],[106.8582848,-6.2133596],[106.8581777,-6.2132263],[106.8579761,-6.2129868],[106.8578087,-6.2126736],[106.857498,-6.212264],[106.857152,-6.21192],[106.8568735,-6.2117636],[106.8563821,-6.2116573],[106.8550004,-6.2113482],[106.854436,-6.2110667],[106.8542336,-6.2109013],[106.854047,-6.210555],[106.8537956,-6.2103097],[106.853335,-6.209961],[106.852969,-6.2096933],[106.8524027,-6.209387],[106.851027,-6.208943],[106.850269,-6.2083337],[106.849723,-6.207861],[106.8494007,-6.2076503],[106.8491498,-6.2075531],[106.8490168,-6.2075816],[106.848909,-6.207664],[106.8489233,-6.2078443],[106.8489281,-6.2079408],[106.8487659,-6.2081734],[106.848741,-6.208209],[106.848562,-6.2083505],[106.8484656,-6.2084268],[106.848026,-6.208687],[106.847979,-6.208788],[106.847696,-6.209144],[106.8471849,-6.2102441],[106.8467639,-6.2108252],[106.8463707,-6.2114371],[106.8447872,-6.2137484],[106.8443501,-6.2143475],[106.8440239,-6.2148535]]]
         }
      }
    ]
  }