{ "type": "FeatureCollection",
    "features": [
      { "type": "Feature",
         "geometry": {
           "type": "Polygon",
           "coordinates": 
              [[[106.8072507,-6.319512],[106.8073003,-6.319636],[106.8074415,-6.3197363],[106.8074954,-6.3198197],[106.8075405,-6.3198894],[106.8075516,-6.319987],[106.8075163,-6.3200524],[106.8073402,-6.3202238],[106.8073292,-6.3202785],[106.8073732,-6.3204791],[106.8074144,-6.3206953],[106.8073879,-6.320882],[106.8074965,-6.320954],[106.8075814,-6.3209602],[106.8076511,-6.3208949],[106.8076949,-6.3208785],[106.8077356,-6.3208749],[106.807804,-6.3209736],[106.80782,-6.3210134],[106.8079247,-6.3210402],[106.8079757,-6.3210429],[106.8080259,-6.3211121],[106.8080481,-6.3211895],[106.8081004,-6.3212175],[106.8080687,-6.3213637],[106.8079944,-6.3213881],[106.8079958,-6.3214748],[106.8079488,-6.3215241],[106.8079718,-6.3216125],[106.8080193,-6.3218496],[106.8080835,-6.3222251],[106.8082144,-6.3226939],[106.808165,-6.3231847],[106.8080251,-6.32356],[106.808201,-6.3235775],[106.8083463,-6.3234753],[106.8084115,-6.3235362],[106.8084553,-6.3236621],[106.8084681,-6.3237039],[106.8084625,-6.3239614],[106.8084045,-6.3242228],[106.8083082,-6.3243553],[106.8082366,-6.3245419],[106.8081946,-6.3247431],[106.8082637,-6.3253027],[106.8083156,-6.3253812],[106.8083158,-6.3255024],[106.8082934,-6.3257539],[106.8085018,-6.3258778],[106.8084795,-6.3260665],[106.8086507,-6.3262514],[106.8087697,-6.3263328],[106.8089037,-6.3265917],[106.8092795,-6.3266915],[106.8094842,-6.3268764],[106.8095512,-6.327054],[106.8097112,-6.3270836],[106.8097447,-6.3271908],[106.8098675,-6.3272907],[106.8097261,-6.3273942],[106.8096963,-6.3274904],[106.8097075,-6.3275755],[106.8097934,-6.3276707],[106.8113358,-6.3270968],[106.812158,-6.3271238],[106.8131392,-6.3271429],[106.8137547,-6.3271485],[106.8137812,-6.3281242],[106.8135138,-6.3283516],[106.8133327,-6.3288176],[106.8133172,-6.3293213],[106.8135138,-6.3296568],[106.8136779,-6.329898],[106.8139406,-6.3302572],[106.8140355,-6.3307357],[106.8139938,-6.3312643],[106.8138543,-6.3317331],[106.8133442,-6.3331537],[106.8132014,-6.3348464],[106.8131647,-6.3351913],[106.813131,-6.3356103],[106.8131093,-6.3359575],[106.813699,-6.3360775],[106.8142571,-6.3361747],[106.8147185,-6.3362386],[106.8150027,-6.3362813],[106.8152093,-6.3364226],[106.8152253,-6.3365505],[106.8153032,-6.3365825],[106.8153917,-6.3365932],[106.8155634,-6.3365772],[106.8162902,-6.3367798],[106.8165907,-6.3368811],[106.8169085,-6.3369784],[106.8172825,-6.337104],[106.8182433,-6.3374809],[106.8186545,-6.3364983],[106.820157,-6.3370921],[106.8222964,-6.3379954],[106.8224166,-6.3380602],[106.8224585,-6.3381052],[106.8226229,-6.3382849],[106.8227169,-6.3384203],[106.822878,-6.3383028],[106.823902,-6.3375542],[106.8242686,-6.3372786],[106.824621,-6.3370922],[106.8248189,-6.336915],[106.825092,-6.3366707],[106.8253028,-6.3364206],[106.8255311,-6.3361509],[106.825613,-6.3361012],[106.8263844,-6.3358674],[106.826722,-6.335832],[106.8273458,-6.3358118],[106.8280853,-6.335659],[106.828508,-6.335553],[106.828914,-6.335716],[106.8290522,-6.3358077],[106.8293605,-6.3360129],[106.829692,-6.336237],[106.8298852,-6.3362546],[106.8301912,-6.3362834],[106.83057,-6.336256],[106.8307696,-6.3361819],[106.830801,-6.336169],[106.8308626,-6.3361464],[106.8310769,-6.3359649],[106.8312326,-6.3358314],[106.8314767,-6.3355181],[106.8315797,-6.3354187],[106.8318908,-6.3351185],[106.8322623,-6.3348044],[106.8324278,-6.3345097],[106.8325739,-6.334354],[106.8327452,-6.3341719],[106.8328481,-6.3340787],[106.833168,-6.333789],[106.8337379,-6.3329242],[106.834251,-6.33245],[106.8346149,-6.332145],[106.8348594,-6.331881],[106.8349919,-6.3318509],[106.835264,-6.331843],[106.8350013,-6.3310073],[106.8347078,-6.3311551],[106.8346313,-6.3311632],[106.833732,-6.3310358],[106.832853,-6.3310513],[106.8324936,-6.3310677],[106.831924,-6.3310864],[106.8319125,-6.3310989],[106.8316761,-6.3310867],[106.8313754,-6.3311587],[106.8307952,-6.3312264],[106.8305908,-6.3312381],[106.8301304,-6.3312124],[106.8295478,-6.3310933],[106.8291998,-6.3309712],[106.8290026,-6.3309035],[106.8286584,-6.3307871],[106.8288824,-6.3302366],[106.8289384,-6.330249],[106.829019,-6.3302113],[106.8290777,-6.330084],[106.8291453,-6.3299986],[106.8291652,-6.3297802],[106.8291736,-6.329689],[106.8291889,-6.3295217],[106.8292051,-6.3293443],[106.8292501,-6.3288523],[106.829283,-6.3281752],[106.8293252,-6.3276803],[106.8293914,-6.3273522],[106.8294601,-6.3270116],[106.8295276,-6.3268302],[106.8296968,-6.3265018],[106.8298805,-6.3262193],[106.8299771,-6.3248009],[106.830524,-6.3231923],[106.8305733,-6.3230843],[106.8305899,-6.3230277],[106.830598,-6.3229911],[106.8306424,-6.3228636],[106.8307009,-6.3228113],[106.8310866,-6.3228489],[106.8311705,-6.3228391],[106.8312391,-6.3228142],[106.8314024,-6.3226674],[106.831684,-6.3218836],[106.8319831,-6.3215019],[106.8319708,-6.3213239],[106.8310001,-6.3211652],[106.8302036,-6.3210786],[106.8298178,-6.3210291],[106.8296062,-6.321091],[106.8293249,-6.3215363],[106.8290927,-6.321912],[106.828999,-6.3218875],[106.8289316,-6.3218841],[106.8276004,-6.3218206],[106.8275108,-6.3218062],[106.8271357,-6.3217837],[106.8253648,-6.3215221],[106.8254672,-6.320744],[106.8254584,-6.3202993],[106.825339,-6.3200693],[106.8251347,-6.3198463],[106.8251447,-6.3195194],[106.8250235,-6.3185175],[106.8249203,-6.3180566],[106.8247994,-6.317833],[106.824217,-6.3177983],[106.8237876,-6.3177682],[106.8236679,-6.3177271],[106.8236937,-6.3174621],[106.8235224,-6.317394],[106.8231254,-6.3173824],[106.8220497,-6.3175506],[106.8215844,-6.3175411],[106.8207271,-6.3174866],[106.8205871,-6.3175056],[106.8204146,-6.3174057],[106.8191413,-6.3172656],[106.8181743,-6.3171317],[106.8180067,-6.3172587],[106.8176697,-6.3172355],[106.8164023,-6.3168499],[106.8163993,-6.3167757],[106.8164292,-6.3164686],[106.8165156,-6.3162012],[106.8165388,-6.3160691],[106.816489,-6.3160361],[106.8163805,-6.31602],[106.8163469,-6.3160133],[106.8163048,-6.3160063],[106.8162912,-6.3159836],[106.8162895,-6.3159252],[106.8163008,-6.3158716],[106.8163149,-6.3158238],[106.8163451,-6.3156976],[106.8163853,-6.3155218],[106.8164281,-6.3153519],[106.8163911,-6.3152113],[106.8163868,-6.3149537],[106.8163849,-6.314885],[106.8163789,-6.3146989],[106.8163766,-6.3146279],[106.8163582,-6.314429],[106.8163458,-6.3143146],[106.8163358,-6.3142273],[106.8162692,-6.3133905],[106.8162605,-6.3119846],[106.8162619,-6.3118769],[106.81626,-6.3118041],[106.816256,-6.3116669],[106.8162567,-6.3114274],[106.8162515,-6.3111888],[106.816245,-6.3108764],[106.8161574,-6.3107129],[106.8161219,-6.3106566],[106.8160634,-6.3106673],[106.8158383,-6.3107081],[106.8156168,-6.3107458],[106.8151317,-6.3107775],[106.8148956,-6.3107918],[106.8145756,-6.3107897],[106.8143492,-6.3107877],[106.8139298,-6.310745],[106.8137512,-6.3107273],[106.8137302,-6.3107285],[106.8129082,-6.3107565],[106.8124239,-6.3107419],[106.8119543,-6.3106908],[106.8112572,-6.3108987],[106.8107215,-6.3108148],[106.8106041,-6.3108002],[106.8096135,-6.3109023],[106.8093126,-6.3116609],[106.8091915,-6.3116973],[106.8087884,-6.3114653],[106.8082669,-6.3111576],[106.8080735,-6.3110376],[106.8080496,-6.3110314],[106.808007,-6.3110706],[106.8079911,-6.3110905],[106.8079762,-6.3111071],[106.8079632,-6.3111805],[106.8079523,-6.3112383],[106.8079399,-6.3112962],[106.8079184,-6.3113778],[106.8079009,-6.3114152],[106.8079083,-6.3115209],[106.8079193,-6.3115592],[106.8079468,-6.3116194],[106.8080129,-6.3116868],[106.8080835,-6.3117835],[106.8081284,-6.3118555],[106.8081743,-6.3119348],[106.808211,-6.3120561],[106.8082458,-6.3122165],[106.8082715,-6.3124335],[106.8082642,-6.3125092],[106.8082477,-6.3125657],[106.8082247,-6.3126423],[106.8081725,-6.3127316],[106.8080734,-6.3128748],[106.8080094,-6.3129811],[106.8079324,-6.3131634],[106.8079214,-6.3132072],[106.8079305,-6.3132455],[106.8080131,-6.3133203],[106.8080727,-6.3133467],[106.8082351,-6.3133403],[106.8082883,-6.3133421],[106.8083525,-6.3133604],[106.8084662,-6.3134894],[106.8087891,-6.31388],[106.8089028,-6.3139384],[106.8089652,-6.3140168],[106.8090074,-6.3141134],[106.8089817,-6.3142593],[106.8090915,-6.3146235],[106.8091257,-6.3147138],[106.8091624,-6.3148054],[106.8091739,-6.3148667],[106.809184,-6.3149308],[106.8091861,-6.3151551],[106.809177,-6.3152918],[106.8092063,-6.3154523],[106.8092247,-6.3156018],[106.809188,-6.3157222],[106.8091641,-6.3158425],[106.8091183,-6.3159464],[106.8090779,-6.3160595],[106.80901,-6.3161233],[106.8088816,-6.3161142],[106.8087459,-6.3160595],[106.8086431,-6.3160905],[106.8085899,-6.3161762],[106.8086028,-6.3163166],[106.8086615,-6.3164114],[106.8087935,-6.3164625],[106.8088211,-6.3165062],[106.8088192,-6.3165755],[106.8088009,-6.3166685],[106.8087807,-6.3167724],[106.8087312,-6.316818],[106.8086468,-6.3168326],[106.8084835,-6.3168271],[106.8083514,-6.3168344],[106.808267,-6.3168545],[106.8079845,-6.3172957],[106.8078249,-6.3173595],[106.8076818,-6.3176768],[106.80768,-6.3178227],[106.8076873,-6.3179731],[106.8078084,-6.3182776],[106.8079478,-6.3184709],[106.8080836,-6.3186386],[106.8080836,-6.318779],[106.8080157,-6.3188356],[106.8078873,-6.3188884],[106.8077332,-6.3189413],[106.8076195,-6.3189833],[106.8075626,-6.319058],[106.807425,-6.3193115],[106.8072893,-6.3194045],[106.8072507,-6.319512]]]
         }
      }
    ]
  }