{ "type": "FeatureCollection",
    "features": [
      { "type": "Feature",
         "geometry": {
           "type": "Polygon",
           "coordinates": 
              [[[106.747697,-6.158139],[106.7477153,-6.1583351],[106.7480363,-6.1583081],[106.7483773,-6.1582711],[106.7487293,-6.1582281],[106.7489713,-6.1581991],[106.7507453,-6.1580401],[106.7518063,-6.1579561],[106.7527123,-6.1579411],[106.7528405,-6.1579687],[106.753725,-6.158046],[106.7547352,-6.1582565],[106.7551928,-6.1583552],[106.7561938,-6.1585737],[106.75832,-6.158993],[106.7594163,-6.1591977],[106.759672,-6.158833],[106.760329,-6.158687],[106.760775,-6.158483],[106.7609146,-6.1585294],[106.7614001,-6.1586907],[106.7615353,-6.1587503],[106.761747,-6.158806],[106.7624146,-6.1588213],[106.762705,-6.158828],[106.7630521,-6.1588459],[106.763113,-6.158849],[106.763479,-6.15889],[106.7637257,-6.1589154],[106.763935,-6.158937],[106.7646589,-6.1592098],[106.7648553,-6.1593118],[106.7650757,-6.1594425],[106.7653469,-6.1595931],[106.7655138,-6.1596763],[106.766058,-6.159818],[106.7664788,-6.1598447],[106.766712,-6.159967],[106.7671283,-6.159345],[106.7671849,-6.1591984],[106.7672399,-6.1590978],[106.7672998,-6.1589358],[106.7676724,-6.1579718],[106.7677896,-6.1578431],[106.7680615,-6.1573451],[106.7684639,-6.1565458],[106.7686394,-6.1562573],[106.768984,-6.1557271],[106.7691346,-6.1554883],[106.7694336,-6.1550392],[106.7702088,-6.153619],[106.7708914,-6.1523338],[106.7709242,-6.1522625],[106.7712004,-6.1518263],[106.7715614,-6.1511543],[106.7720484,-6.1503113],[106.7717344,-6.1501385],[106.771112,-6.149854],[106.7709803,-6.1497982],[106.7702624,-6.1494897],[106.7685307,-6.1487624],[106.768149,-6.148823],[106.7677872,-6.1488387],[106.767435,-6.148854],[106.7666225,-6.1489708],[106.7653189,-6.1491581],[106.7644267,-6.1492736],[106.7635719,-6.149162],[106.7626503,-6.1490482],[106.7623827,-6.149039],[106.7614129,-6.1489386],[106.760645,-6.148847],[106.760223,-6.148493],[106.7610384,-6.1474443],[106.760696,-6.1472283],[106.7599592,-6.1467202],[106.7595499,-6.14646],[106.7590857,-6.1461649],[106.7582657,-6.1456154],[106.7579211,-6.1453909],[106.757315,-6.1450247],[106.7567564,-6.1446407],[106.7563464,-6.1453791],[106.7558068,-6.1451063],[106.7546054,-6.1444989],[106.7546648,-6.1443807],[106.7544806,-6.1442921],[106.7544212,-6.1443748],[106.7539759,-6.1441535],[106.7537972,-6.1443817],[106.7533361,-6.1440808],[106.753208,-6.14398],[106.7530801,-6.1438378],[106.7529988,-6.1437459],[106.7524389,-6.1431447],[106.7522192,-6.1428807],[106.7520515,-6.1427004],[106.7512266,-6.141768],[106.751166,-6.1418372],[106.7509503,-6.1421088],[106.7508303,-6.1422587],[106.7507154,-6.142532],[106.7507133,-6.143198],[106.7506949,-6.1438372],[106.7506557,-6.1441684],[106.7506218,-6.1444542],[106.7504787,-6.1456619],[106.7504667,-6.1458327],[106.7504563,-6.1459928],[106.7504457,-6.1465683],[106.7504225,-6.1467038],[106.750358,-6.1470392],[106.750358,-6.1476842],[106.750358,-6.147979],[106.7503526,-6.1484626],[106.750377,-6.14928],[106.750339,-6.150093],[106.750198,-6.1503088],[106.7498311,-6.1508822],[106.749612,-6.1512245],[106.749025,-6.152094],[106.7489062,-6.152289],[106.7487369,-6.1525667],[106.74861,-6.152775],[106.748538,-6.153008],[106.748433,-6.153345],[106.7483524,-6.1536002],[106.748326,-6.153684],[106.748177,-6.154161],[106.748124,-6.154528],[106.748079,-6.154828],[106.748013,-6.155291],[106.747953,-6.155798],[106.748069,-6.156159],[106.747881,-6.156348],[106.747844,-6.15665],[106.747817,-6.156926],[106.747781,-6.157276],[106.747762,-6.157478],[106.747738,-6.157716],[106.747721,-6.157863],[106.747697,-6.158139]]]
         }
      }
    ]
  }