{ "type": "FeatureCollection",
    "features": [
      { "type": "Feature",
         "geometry": {
           "type": "Polygon",
           "coordinates": 
              [[[106.8492729,-6.256721],[106.849287,-6.2579346],[106.8492768,-6.2588428],[106.8493813,-6.2588667],[106.8498469,-6.2588629],[106.8506289,-6.2588527],[106.8513972,-6.2588462],[106.8514425,-6.2589378],[106.8513569,-6.2596736],[106.8513611,-6.2599878],[106.8514717,-6.2607166],[106.8516022,-6.2613847],[106.8524373,-6.2614832],[106.8520645,-6.262069],[106.8519546,-6.262311],[106.8518601,-6.262519],[106.8513197,-6.2637088],[106.8506628,-6.2651549],[106.8505826,-6.2653175],[106.8504112,-6.265657],[106.850129,-6.2663844],[106.8498743,-6.2667941],[106.8506916,-6.2668463],[106.8522927,-6.2668256],[106.8525449,-6.2668223],[106.853161,-6.2667952],[106.8541114,-6.2667535],[106.854153,-6.2667517],[106.8543277,-6.266744],[106.854675,-6.2667208],[106.8555077,-6.2666651],[106.8554522,-6.2665122],[106.8554193,-6.2664663],[106.8553955,-6.2664169],[106.8553398,-6.2662953],[106.8552432,-6.2661196],[106.8550444,-6.2659703],[106.8548586,-6.265872],[106.8546734,-6.265774],[106.8542929,-6.2655726],[106.854141,-6.2653896],[106.8540632,-6.2652958],[106.8539512,-6.2651193],[106.8543429,-6.2646314],[106.8547715,-6.264543],[106.8557897,-6.2644303],[106.8561467,-6.2643839],[106.8566034,-6.2643165],[106.8567685,-6.2643158],[106.8569501,-6.2643304],[106.8572024,-6.2640062],[106.8571836,-6.2638136],[106.8569451,-6.2636641],[106.8565147,-6.2635923],[106.8556593,-6.2633347],[106.8549516,-6.2630279],[106.8547525,-6.262931],[106.8543469,-6.2625302],[106.8542645,-6.2622897],[106.8543718,-6.2621157],[106.8545108,-6.2619988],[106.8547554,-6.2619178],[106.8552781,-6.2617027],[106.85561,-6.2619689],[106.8559898,-6.2623198],[106.8562736,-6.2625692],[106.8569683,-6.262879],[106.8577184,-6.2629027],[106.8582191,-6.262873],[106.8585035,-6.2629334],[106.8588949,-6.2630165],[106.859163,-6.2628447],[106.8592992,-6.262709],[106.8594738,-6.2625155],[106.8594962,-6.2620661],[106.8597232,-6.2614918],[106.8597984,-6.2609899],[106.8598014,-6.2609676],[106.8598487,-6.260619],[106.8598909,-6.2603097],[106.8599068,-6.2601934],[106.8600149,-6.2596215],[106.8600211,-6.2595949],[106.860103,-6.2592457],[106.860185,-6.2590597],[106.8603175,-6.2586445],[106.8604009,-6.2583449],[106.8604548,-6.2581566],[106.8605608,-6.257745],[106.8605715,-6.2575511],[106.8605587,-6.257438],[106.8605517,-6.2573763],[106.860462,-6.2571581],[106.860423,-6.2570502],[106.8602969,-6.2569952],[106.8601345,-6.2570387],[106.8599686,-6.2570481],[106.8597482,-6.2570789],[106.8595614,-6.2570725],[106.8593865,-6.2569601],[106.8593388,-6.2567404],[106.8594519,-6.2565284],[106.8596137,-6.2563955],[106.859819,-6.2563236],[106.8599711,-6.2562392],[106.8600056,-6.25622],[106.8601603,-6.2561187],[106.8602623,-6.2560404],[106.8605129,-6.255848],[106.8606099,-6.2557155],[106.8606755,-6.2556258],[106.8607007,-6.2555251],[106.860727,-6.255453],[106.8607197,-6.2553482],[106.8607141,-6.2552673],[106.8607028,-6.2551673],[106.8606623,-6.2549902],[106.8606388,-6.2549449],[106.8605531,-6.2547936],[106.860463,-6.2546976],[106.8601474,-6.2545392],[106.8598402,-6.2543811],[106.8596161,-6.2543471],[106.8593425,-6.2544592],[106.859233,-6.2545456],[106.8590825,-6.2546515],[106.8589425,-6.2547178],[106.8586947,-6.2548351],[106.8582799,-6.2551073],[106.8581127,-6.2552263],[106.8579425,-6.2553301],[106.8578189,-6.2553168],[106.8576411,-6.2551216],[106.8575452,-6.2548024],[106.857567,-6.254493],[106.8575782,-6.2541044],[106.8575955,-6.2535637],[106.857652,-6.2534269],[106.8576883,-6.2533226],[106.8577565,-6.2531267],[106.8578533,-6.2528348],[106.8580008,-6.2525102],[106.8580861,-6.2524054],[106.8582316,-6.2522267],[106.8586041,-6.2519035],[106.8589043,-6.2515293],[106.8593183,-6.2512585],[106.8596447,-6.2510736],[106.8597866,-6.2509828],[106.8599593,-6.2508724],[106.8590266,-6.2510294],[106.858499,-6.2509726],[106.8582294,-6.2510985],[106.857953,-6.2511242],[106.8576883,-6.2511488],[106.8569123,-6.2512209],[106.8565252,-6.2512004],[106.8564419,-6.251196],[106.8563503,-6.2511912],[106.8558164,-6.2512423],[106.8551523,-6.2512976],[106.8545255,-6.2513355],[106.8541234,-6.2513963],[106.8537169,-6.2514256],[106.8525797,-6.2515386],[106.8522319,-6.2515661],[106.8520725,-6.2516019],[106.8511753,-6.2516707],[106.8511645,-6.2516715],[106.8501977,-6.2517458],[106.8496445,-6.252399],[106.8496507,-6.2531839],[106.8496648,-6.253965],[106.849598,-6.255641],[106.8492729,-6.256721]]]
         }
      }
    ]
  }