{ "type": "FeatureCollection",
    "features": [
      { "type": "Feature",
         "geometry": {
           "type": "Polygon",
           "coordinates": 
              [[[106.80994,-6.2050624],[106.8100286,-6.2052837],[106.8102707,-6.2056127],[106.8103838,-6.205769],[106.8104664,-6.2058816],[106.8105777,-6.2060489],[106.8107221,-6.206242],[106.8111453,-6.2067503],[106.8112816,-6.2070005],[106.811317,-6.2070398],[106.8113932,-6.2071243],[106.8115548,-6.2073098],[106.8116749,-6.207464],[106.8118708,-6.2077207],[106.8119126,-6.2078859],[106.812098,-6.208176],[106.812262,-6.2084043],[106.8123247,-6.2084916],[106.8125531,-6.2089502],[106.8126711,-6.2092829],[106.81275,-6.209565],[106.8127945,-6.2098413],[106.812827,-6.210254],[106.8128209,-6.2103015],[106.812791,-6.210536],[106.812772,-6.210936],[106.812649,-6.211254],[106.812679,-6.21156],[106.812864,-6.211968],[106.813013,-6.212104],[106.8130555,-6.2121481],[106.813279,-6.21238],[106.813584,-6.212594],[106.813886,-6.212777],[106.814138,-6.212972],[106.814356,-6.213121],[106.8146623,-6.2133637],[106.814799,-6.213472],[106.815643,-6.21439],[106.8160922,-6.2149511],[106.816477,-6.215441],[106.816628,-6.215692],[106.816779,-6.215875],[106.8184,-6.214627],[106.8190801,-6.2138683],[106.819593,-6.213211],[106.82045,-6.211628],[106.8210621,-6.2104512],[106.8212997,-6.2099658],[106.8215751,-6.2093227],[106.8217628,-6.2086953],[106.8221051,-6.2071412],[106.8221748,-6.20632],[106.822241,-6.2055402],[106.8223386,-6.2046356],[106.822407,-6.204196],[106.8224533,-6.2039947],[106.8225207,-6.2036621],[106.8226045,-6.2032583],[106.8226679,-6.2029869],[106.822744,-6.202639],[106.8217979,-6.2025141],[106.820409,-6.202194],[106.819694,-6.201998],[106.818419,-6.2016397],[106.8179535,-6.2015214],[106.81756,-6.201423],[106.816459,-6.201153],[106.815477,-6.200945],[106.814206,-6.200663],[106.813431,-6.200437],[106.812204,-6.200566],[106.811423,-6.200583],[106.8112755,-6.2014043],[106.811212,-6.201802],[106.81118,-6.202175],[106.811379,-6.202481],[106.8114595,-6.2027612],[106.8114634,-6.203176],[106.8113794,-6.2035045],[106.8111847,-6.2038789],[106.8110444,-6.2041262],[106.8109431,-6.2043046],[106.8108517,-6.2043829],[106.8108025,-6.2044249],[106.8106161,-6.2044939],[106.8104522,-6.2045544],[106.8103836,-6.2045901],[106.8102069,-6.2046818],[106.8101471,-6.2047388],[106.8100237,-6.2048563],[106.80994,-6.2050624]]]
         }
      }
    ]
  }