{ "type": "FeatureCollection",
    "features": [
      { "type": "Feature",
         "geometry": {
           "type": "Polygon",
           "coordinates": 
              [[[106.8768731,-6.2847741],[106.8776492,-6.2869955],[106.8779135,-6.2875173],[106.8780872,-6.2879307],[106.8783449,-6.2883459],[106.878611,-6.2889835],[106.8788062,-6.2894626],[106.8789004,-6.2897617],[106.8790628,-6.2901451],[106.8792204,-6.2903925],[106.8794467,-6.2909145],[106.8794997,-6.2911651],[106.8796386,-6.2914404],[106.8797788,-6.2918643],[106.8798651,-6.2920553],[106.8800045,-6.2923844],[106.8801613,-6.2928112],[106.8804483,-6.2935662],[106.8805799,-6.2938842],[106.8808935,-6.2946117],[106.881046,-6.2949408],[106.8813059,-6.2955747],[106.8816151,-6.2966277],[106.881725,-6.297038],[106.8818301,-6.2974002],[106.8818975,-6.2977086],[106.8820761,-6.2980377],[106.8823666,-6.2987961],[106.8838025,-6.298799],[106.8858403,-6.2988239],[106.8893213,-6.2988984],[106.8893298,-6.2998318],[106.8903497,-6.2998471],[106.8903491,-6.2989225],[106.891481,-6.2989493],[106.8920821,-6.2989751],[106.8923187,-6.2998607],[106.8928091,-6.2998693],[106.8927891,-6.2989818],[106.8927811,-6.2986334],[106.8927727,-6.298289],[106.8927645,-6.2979516],[106.8927879,-6.2974929],[106.8928205,-6.2972053],[106.8927445,-6.2971607],[106.8926591,-6.2971337],[106.8923929,-6.2970548],[106.8923007,-6.297026],[106.89209,-6.2969606],[106.8919851,-6.2969316],[106.8918264,-6.2969136],[106.8916322,-6.296906],[106.89136,-6.2968348],[106.8909593,-6.2965831],[106.8907976,-6.2964836],[106.8906627,-6.2963831],[106.8905139,-6.2962004],[106.8904481,-6.2961017],[106.8903154,-6.2957359],[106.8901827,-6.29547],[106.8899692,-6.2951712],[106.8898289,-6.2948662],[106.8896442,-6.2946035],[106.8895895,-6.2944117],[106.8895305,-6.2941081],[106.889493,-6.2936676],[106.8894298,-6.2933375],[106.8893029,-6.2930277],[106.889081,-6.2926963],[106.8886858,-6.2921706],[106.8885719,-6.291808],[106.8885377,-6.291589],[106.8884663,-6.2912044],[106.8883516,-6.2909274],[106.8882165,-6.2907242],[106.8880181,-6.2905673],[106.8886776,-6.2904588],[106.8888672,-6.2904263],[106.889207,-6.2903442],[106.8895451,-6.2903029],[106.8899544,-6.2902803],[106.8900053,-6.2900264],[106.8899293,-6.289665],[106.8895126,-6.2894437],[106.888923,-6.2893468],[106.888527,-6.2892044],[106.8880566,-6.2890499],[106.887661,-6.288908],[106.8872279,-6.2887066],[106.8869842,-6.288307],[106.8867041,-6.2876532],[106.8860811,-6.2851225],[106.8859934,-6.2846517],[106.8859873,-6.2842582],[106.8860787,-6.2840342],[106.886077,-6.2838658],[106.8860726,-6.2837315],[106.8857681,-6.2832653],[106.8855244,-6.2830353],[106.8854818,-6.2828113],[106.8853722,-6.2825812],[106.8852138,-6.2821514],[106.8848971,-6.2817336],[106.8846169,-6.2813583],[106.884489,-6.2809527],[106.8843977,-6.2805652],[106.8843794,-6.2802262],[106.8844403,-6.2795663],[106.8844791,-6.278818],[106.8843573,-6.2779583],[106.8842219,-6.2778257],[106.88404,-6.2775908],[106.8838634,-6.2772155],[106.8835101,-6.276495],[106.8834188,-6.276265],[106.8833822,-6.2760591],[106.8832848,-6.2753811],[106.8832726,-6.2752055],[106.8836972,-6.2751818],[106.8836972,-6.2750105],[106.8836024,-6.2746081],[106.8835335,-6.2742999],[106.8834819,-6.2740571],[106.8833357,-6.2737059],[106.8833216,-6.2732691],[106.8832748,-6.2728765],[106.883326,-6.2723343],[106.8834399,-6.2716041],[106.882087,-6.2723162],[106.8822132,-6.2724205],[106.8822573,-6.2725292],[106.8822924,-6.2726727],[106.8823417,-6.2727522],[106.8823542,-6.2727866],[106.8823549,-6.2728404],[106.8823504,-6.2728944],[106.8823665,-6.2729376],[106.8823445,-6.2729901],[106.8823306,-6.2730425],[106.8823091,-6.2731097],[106.8822788,-6.2731843],[106.8823124,-6.2733124],[106.882308,-6.2733687],[106.882325,-6.2734598],[106.8823429,-6.2735667],[106.8823246,-6.2736787],[106.8822643,-6.2736926],[106.8822216,-6.2737128],[106.8821662,-6.2737251],[106.8821232,-6.2736979],[106.8821058,-6.2736848],[106.8820546,-6.2736557],[106.8820329,-6.2736818],[106.8820038,-6.27372],[106.8819769,-6.273734],[106.881984,-6.2737756],[106.8819817,-6.2738207],[106.881984,-6.2738833],[106.8819191,-6.2739367],[106.8818533,-6.2739219],[106.8817981,-6.2739439],[106.8817473,-6.2739812],[106.8817122,-6.2740511],[106.8816844,-6.2741038],[106.8816976,-6.2741561],[106.8816495,-6.2742696],[106.881652,-6.2743825],[106.8816271,-6.2745171],[106.8816459,-6.2746286],[106.8816466,-6.2747722],[106.8816585,-6.2748675],[106.8816613,-6.2749357],[106.8816645,-6.2749693],[106.8816716,-6.2750347],[106.8816836,-6.2750932],[106.8816739,-6.2751648],[106.8816907,-6.2752431],[106.8816176,-6.2752946],[106.8815567,-6.2753581],[106.8815277,-6.2753823],[106.8815476,-6.2754107],[106.881583,-6.2754313],[106.8816026,-6.2754422],[106.8816572,-6.2754792],[106.8816864,-6.2755177],[106.8816845,-6.2755385],[106.8816834,-6.275562],[106.8816747,-6.2756062],[106.8816458,-6.2756607],[106.8816167,-6.2756941],[106.8815802,-6.275739],[106.8815661,-6.2757672],[106.8815356,-6.2757781],[106.8815546,-6.2757951],[106.8815647,-6.2758244],[106.8815696,-6.2758455],[106.8815626,-6.2758824],[106.8815696,-6.2759067],[106.8815864,-6.2759359],[106.8816001,-6.2759738],[106.8815936,-6.2760194],[106.8815538,-6.2760832],[106.8814803,-6.276095],[106.8814482,-6.2761249],[106.8813679,-6.2761069],[106.8812594,-6.276061],[106.8812276,-6.2760745],[106.8812036,-6.2761069],[106.881169,-6.2761908],[106.8811574,-6.276263],[106.8811248,-6.2763106],[106.8812222,-6.2763732],[106.8812848,-6.2764198],[106.8812757,-6.2765622],[106.8812674,-6.2767179],[106.8812287,-6.2769177],[106.881191,-6.2770413],[106.8811493,-6.2773002],[106.8811493,-6.2776575],[106.8811556,-6.2777683],[106.8812057,-6.2778132],[106.8813004,-6.2778646],[106.8814463,-6.2778853],[106.8815088,-6.2779075],[106.8815063,-6.2780644],[106.8815188,-6.2781339],[106.8815227,-6.2782064],[106.8815281,-6.2782708],[106.8815227,-6.2783514],[106.8815421,-6.2784555],[106.8815696,-6.2786052],[106.8816165,-6.2787087],[106.881679,-6.2788589],[106.8816836,-6.2789536],[106.8816852,-6.2790508],[106.8816645,-6.2791464],[106.8816738,-6.2792525],[106.8816894,-6.2793405],[106.881705,-6.2794544],[106.8817045,-6.2795956],[106.8817037,-6.2796913],[106.8817259,-6.2798273],[106.881751,-6.2799509],[106.8818092,-6.2800655],[106.8819082,-6.2802105],[106.8819968,-6.2803296],[106.881938,-6.2804583],[106.8819551,-6.2805315],[106.8818978,-6.2807024],[106.8817832,-6.2810338],[106.8816373,-6.2814067],[106.8813836,-6.2817991],[106.8810219,-6.2823665],[106.8808292,-6.2825019],[106.8806538,-6.2825929],[106.8805241,-6.2826915],[106.8804021,-6.282828],[106.8803334,-6.2829493],[106.8802877,-6.2831995],[106.88028,-6.2835027],[106.8803258,-6.2837074],[106.8803657,-6.2837678],[106.8803563,-6.2838439],[106.8803105,-6.2839728],[106.8802987,-6.284016],[106.8802471,-6.2840844],[106.8802017,-6.2841744],[106.8802046,-6.2842635],[106.8802266,-6.2843291],[106.8801907,-6.2845384],[106.8801772,-6.2846111],[106.8801537,-6.2847372],[106.8801449,-6.2848478],[106.8801198,-6.2850267],[106.8799713,-6.2851673],[106.8799597,-6.2851783],[106.8797472,-6.2850605],[106.8796976,-6.285151],[106.87958,-6.2851176],[106.8794485,-6.2850873],[106.87936,-6.2850737],[106.879252,-6.285057],[106.8790539,-6.2850135],[106.8787307,-6.2849629],[106.8783841,-6.2848756],[106.8777951,-6.2847992],[106.877519,-6.2847229],[106.8772917,-6.2846627],[106.8768731,-6.2847741]]]
         }
      }
    ]
  }