{ "type": "FeatureCollection",
    "features": [
      { "type": "Feature",
         "geometry": {
           "type": "Polygon",
           "coordinates": 
              [[[106.882513,-6.230117],[106.882579,-6.230153],[106.882854,-6.23038],[106.883009,-6.230555],[106.883022,-6.230642],[106.883088,-6.231081],[106.883093,-6.23166],[106.88314,-6.232486],[106.883172,-6.233294],[106.883197,-6.233374],[106.883208,-6.233401],[106.883323,-6.233478],[106.883523,-6.23355],[106.883712,-6.233615],[106.883685,-6.233709],[106.883667,-6.233744],[106.883632,-6.233828],[106.883612,-6.2339],[106.883622,-6.233958],[106.883587,-6.233998],[106.883589,-6.23406],[106.8836,-6.234125],[106.883602,-6.234189],[106.883844,-6.234165],[106.883926,-6.234193],[106.883931,-6.234308],[106.883941,-6.234427],[106.883942,-6.234518],[106.883941,-6.234625],[106.883878,-6.234634],[106.883884,-6.234713],[106.88388,-6.23472],[106.883766,-6.234868],[106.883631,-6.234885],[106.883488,-6.234952],[106.883517,-6.235202],[106.883572,-6.235632],[106.883813,-6.235662],[106.883944,-6.236182],[106.884147,-6.236136],[106.88425,-6.236274],[106.884314,-6.236404],[106.884381,-6.236521],[106.884408,-6.236608],[106.884406,-6.236787],[106.8844,-6.236966],[106.884367,-6.237144],[106.884314,-6.237289],[106.884297,-6.237432],[106.884287,-6.237593],[106.88427,-6.237596],[106.88425,-6.237628],[106.884225,-6.237806],[106.883259,-6.23789],[106.883247,-6.237892],[106.883251,-6.238079],[106.883281,-6.238145],[106.88329,-6.238251],[106.883337,-6.238545],[106.88335,-6.238746],[106.883376,-6.239031],[106.883395,-6.239142],[106.883452,-6.239218],[106.8835,-6.239341],[106.8835566,-6.2396328],[106.8840264,-6.2396121],[106.8843305,-6.2395978],[106.8845225,-6.2395827],[106.8847468,-6.2395692],[106.884824,-6.2395716],[106.8849495,-6.2395643],[106.8851379,-6.2395549],[106.885989,-6.2395252],[106.8860866,-6.2395181],[106.8870873,-6.2394754],[106.887456,-6.239466],[106.8878219,-6.239459],[106.888116,-6.2394472],[106.8886751,-6.2394263],[106.8889847,-6.2394112],[106.8893395,-6.2393908],[106.8899441,-6.239362],[106.8904283,-6.2393751],[106.8911497,-6.2393903],[106.8918182,-6.2394247],[106.8920355,-6.2394317],[106.892042,-6.239382],[106.892074,-6.239076],[106.892353,-6.238653],[106.892672,-6.23829],[106.89286,-6.237912],[106.892566,-6.237692],[106.892212,-6.237558],[106.892221,-6.237167],[106.892377,-6.236977],[106.892656,-6.236764],[106.892968,-6.236454],[106.893063,-6.236156],[106.892866,-6.235884],[106.892942,-6.235621],[106.892895,-6.234981],[106.892563,-6.23504],[106.892297,-6.234849],[106.892218,-6.234532],[106.892051,-6.233765],[106.891836,-6.233085],[106.891659,-6.232563],[106.891301,-6.2321795],[106.891115,-6.232017],[106.8907949,-6.2318456],[106.8904834,-6.2314224],[106.890392,-6.231361],[106.89035,-6.2313243],[106.8902203,-6.2312316],[106.8901496,-6.2311968],[106.890105,-6.2311686],[106.8900356,-6.2310706],[106.890086,-6.23087],[106.8900956,-6.230777],[106.8900636,-6.2306238],[106.890044,-6.230542],[106.8900392,-6.2304866],[106.8900357,-6.2304093],[106.89005,-6.230298],[106.89015,-6.229861],[106.8901767,-6.2296325],[106.89019,-6.229392],[106.8903595,-6.229081],[106.8905332,-6.229006],[106.8906551,-6.2289337],[106.8907426,-6.2288243],[106.8908038,-6.2287526],[106.890953,-6.228666],[106.8912675,-6.2285856],[106.8914851,-6.22853],[106.8917081,-6.2284459],[106.8916449,-6.2282316],[106.8914305,-6.2280899],[106.891319,-6.227911],[106.8913862,-6.2277557],[106.8914083,-6.2275933],[106.8914286,-6.22737],[106.8914667,-6.227214],[106.8916178,-6.227144],[106.8918369,-6.2268461],[106.8921105,-6.2266861],[106.8927274,-6.2265954],[106.8928561,-6.2264781],[106.8929044,-6.2262701],[106.8930171,-6.2258062],[106.8931063,-6.2254517],[106.8934247,-6.2252462],[106.893473,-6.2250916],[106.893385,-6.225037],[106.8932692,-6.2249156],[106.8932585,-6.2248036],[106.8934483,-6.22441],[106.8934483,-6.223759],[106.8936072,-6.2234437],[106.893558,-6.2231476],[106.8935985,-6.2229607],[106.8936214,-6.222801],[106.8937258,-6.2225891],[106.894136,-6.2221457],[106.8945309,-6.221822],[106.894815,-6.2216362],[106.8952671,-6.2214811],[106.895408,-6.2213788],[106.8956628,-6.221374],[106.8960023,-6.2204782],[106.896208,-6.2195939],[106.8959984,-6.2192518],[106.8959619,-6.2188685],[106.8958802,-6.2187758],[106.8955236,-6.2185657],[106.89516,-6.2184347],[106.895056,-6.21822],[106.895054,-6.218179],[106.8950397,-6.2180206],[106.895036,-6.217979],[106.895155,-6.217553],[106.895239,-6.217198],[106.895291,-6.216981],[106.895501,-6.216942],[106.895839,-6.217032],[106.895888,-6.216962],[106.895865,-6.21674],[106.895975,-6.21656],[106.896056,-6.216448],[106.896151,-6.21625],[106.896143,-6.216123],[106.8961355,-6.216059],[106.8961254,-6.21599],[106.896155,-6.215875],[106.896077,-6.215801],[106.896009,-6.215624],[106.895847,-6.215485],[106.895826,-6.215393],[106.895816,-6.215327],[106.895799,-6.215046],[106.895799,-6.214412],[106.895799,-6.213486],[106.895764,-6.213228],[106.895606,-6.213226],[106.895486,-6.213226],[106.89518,-6.213213],[106.894754,-6.21321],[106.894468,-6.213191],[106.894378,-6.213185],[106.894038,-6.213182],[106.893646,-6.213169],[106.893233,-6.213166],[106.892835,-6.213166],[106.892421,-6.213157],[106.892109,-6.213154],[106.891651,-6.213176],[106.8912,-6.213207],[106.890899,-6.213247],[106.890812,-6.21326],[106.890695,-6.213274],[106.890553,-6.213297],[106.890431,-6.213315],[106.890287,-6.213344],[106.890161,-6.213367],[106.889962,-6.213419],[106.889857,-6.213444],[106.889684,-6.213505],[106.889566,-6.213535],[106.889413,-6.213583],[106.889275,-6.213621],[106.88913,-6.213664],[106.889007,-6.213707],[106.888856,-6.213758],[106.888693,-6.21381],[106.88853,-6.213865],[106.888389,-6.213915],[106.887905,-6.214202],[106.886737,-6.214304],[106.886889,-6.216238],[106.887166,-6.217721],[106.8872257,-6.2180247],[106.887248,-6.218195],[106.887266,-6.218478],[106.887239,-6.218639],[106.887156,-6.218818],[106.887003,-6.219169],[106.886885,-6.219455],[106.886772,-6.21971],[106.886649,-6.219985],[106.886474,-6.220402],[106.88625,-6.220913],[106.885999,-6.221543],[106.885772,-6.22207],[106.88574,-6.222149],[106.885633,-6.222407],[106.885526,-6.222674],[106.885098,-6.223682],[106.884892,-6.224162],[106.884601,-6.224841],[106.883938,-6.226421],[106.883724,-6.226978],[106.883851,-6.227065],[106.883798,-6.227187],[106.883749,-6.227326],[106.883684,-6.227462],[106.88365,-6.227524],[106.883607,-6.22763],[106.883546,-6.22776],[106.883531,-6.22782],[106.8832925,-6.2284133],[106.88319,-6.228745],[106.882749,-6.229641],[106.882585,-6.230026],[106.882529,-6.230097],[106.882513,-6.230117]]]
         }
      }
    ]
  }