{ "type": "FeatureCollection",
    "features": [
      { "type": "Feature",
         "geometry": {
           "type": "Polygon",
           "coordinates": 
              [[[106.8085931,-6.253521],[106.8086157,-6.2542543],[106.8086308,-6.2547535],[106.8092269,-6.2547088],[106.8108104,-6.2546837],[106.8107906,-6.2541975],[106.8107966,-6.2537717],[106.8111559,-6.2537661],[106.8111613,-6.2540522],[106.8112009,-6.2546925],[106.8112065,-6.2547762],[106.8114273,-6.2547947],[106.811622,-6.2548293],[106.8117174,-6.2548488],[106.8117286,-6.2549186],[106.8127952,-6.2547453],[106.8144936,-6.2546813],[106.8173234,-6.2545781],[106.8201059,-6.2544318],[106.8218684,-6.2544274],[106.8221687,-6.2544135],[106.8224438,-6.2543772],[106.8227499,-6.2543384],[106.8229941,-6.2542879],[106.8231218,-6.2542785],[106.8232977,-6.2542903],[106.8234029,-6.2542113],[106.8234465,-6.2541462],[106.8234207,-6.2540873],[106.823378,-6.253875],[106.823301,-6.253584],[106.823673,-6.253189],[106.8237027,-6.2530084],[106.8236601,-6.2528119],[106.8235524,-6.252487],[106.8235438,-6.2522644],[106.823897,-6.2519647],[106.8238724,-6.2518236],[106.8238281,-6.2516308],[106.8238848,-6.2510125],[106.8238774,-6.2501126],[106.8236989,-6.2492503],[106.8233058,-6.2485787],[106.8231617,-6.2483859],[106.8226432,-6.2480369],[106.8222808,-6.2470526],[106.8222276,-6.2465595],[106.8223337,-6.2462211],[106.8226426,-6.2456102],[106.8225845,-6.2447312],[106.8226735,-6.2445453],[106.8233429,-6.2444147],[106.8234226,-6.2439252],[106.8235079,-6.2438723],[106.8235606,-6.243636],[106.8234887,-6.243532],[106.8233797,-6.2435362],[106.8232723,-6.2435405],[106.8231601,-6.24343],[106.8231668,-6.2433367],[106.8233932,-6.2431456],[106.8234917,-6.2429281],[106.8230536,-6.2423207],[106.8227502,-6.2424841],[106.8225993,-6.2423811],[106.8222902,-6.242402],[106.8220969,-6.242132],[106.8214862,-6.2420297],[106.8213803,-6.2417961],[106.821363,-6.2416199],[106.821675,-6.2415346],[106.8216595,-6.2412968],[106.8214228,-6.2406692],[106.8213934,-6.2405522],[106.8211743,-6.2405864],[106.8206733,-6.2406078],[106.8202972,-6.2405592],[106.8192375,-6.2398987],[106.8184972,-6.2394381],[106.8182023,-6.2392113],[106.817767,-6.238956],[106.8170713,-6.2400461],[106.8164343,-6.2410658],[106.8161772,-6.2408835],[106.815767,-6.24167],[106.8160265,-6.2422649],[106.816004,-6.242332],[106.815671,-6.242342],[106.815626,-6.2424725],[106.8156274,-6.24267],[106.8157181,-6.2429637],[106.815551,-6.243246],[106.815489,-6.24322],[106.815416,-6.243056],[106.815196,-6.2428666],[106.8148626,-6.2429135],[106.8147483,-6.2429921],[106.8147159,-6.2430722],[106.81471,-6.2431195],[106.814712,-6.243244],[106.8147306,-6.2436777],[106.81466,-6.243926],[106.8146071,-6.2440084],[106.8145387,-6.2440638],[106.814525,-6.244168],[106.8142025,-6.2442976],[106.8141497,-6.2443568],[106.814233,-6.244559],[106.8138848,-6.2447337],[106.8138103,-6.2447941],[106.8137774,-6.2448982],[106.813789,-6.2449763],[106.8138058,-6.2451286],[106.813861,-6.2452371],[106.8138625,-6.2453922],[106.8138343,-6.2455298],[106.8135927,-6.2456687],[106.8134143,-6.2456729],[106.8132917,-6.2456101],[106.8131528,-6.2455944],[106.8130692,-6.2457502],[106.8129955,-6.2457808],[106.8129956,-6.2460927],[106.8127721,-6.2462516],[106.8126499,-6.2467299],[106.8124398,-6.2468449],[106.8121579,-6.2467632],[106.8120121,-6.246848],[106.8119663,-6.2469779],[106.8119301,-6.247254],[106.8115349,-6.2471859],[106.8114204,-6.2472516],[106.8112161,-6.2474699],[106.8109924,-6.2476195],[106.8108338,-6.2477214],[106.8105821,-6.2478833],[106.81029,-6.2481852],[106.810118,-6.24838],[106.8099236,-6.2485581],[106.809707,-6.2486371],[106.809549,-6.2487024],[106.8094634,-6.2490607],[106.8095874,-6.2491044],[106.8100667,-6.2503631],[106.8104164,-6.2504124],[106.8103587,-6.2508071],[106.8098787,-6.2511097],[106.8089075,-6.2524468],[106.8091613,-6.2527276],[106.8092058,-6.2528542],[106.8091632,-6.2529418],[106.8086757,-6.2531478],[106.8085931,-6.253521]]]
         }
      }
    ]
  }