{ "type": "FeatureCollection",
    "features": [
      { "type": "Feature",
         "geometry": {
           "type": "Polygon",
           "coordinates": 
              [[[106.7670689,-6.1014204],[106.7673061,-6.1021355],[106.7674219,-6.1024285],[106.7674219,-6.1027806],[106.7675078,-6.1032179],[106.7675721,-6.1033673],[106.7676258,-6.103698],[106.7677438,-6.103826],[106.7677653,-6.1040607],[106.7677974,-6.1042741],[106.7678589,-6.1046442],[106.7678667,-6.1049157],[106.7679002,-6.1052191],[106.7678745,-6.1054034],[106.7678734,-6.1054567],[106.7678856,-6.1055011],[106.7678822,-6.1055921],[106.7678833,-6.105725],[106.7680689,-6.1061812],[106.7680208,-6.1067509],[106.7679685,-6.1071417],[106.7679369,-6.1075247],[106.7679334,-6.1077052],[106.7679644,-6.1078995],[106.7680663,-6.1083992],[106.7681828,-6.1087723],[106.7684142,-6.1090003],[106.768652,-6.1092122],[106.7688448,-6.1093855],[106.7689885,-6.1095686],[106.769175,-6.1098024],[106.7693879,-6.1102144],[106.7696746,-6.1107374],[106.7698956,-6.111153],[106.7701708,-6.1116704],[106.7704912,-6.1122788],[106.7705718,-6.1126275],[106.7705521,-6.1128658],[106.7704171,-6.1131899],[106.7701662,-6.1137412],[106.770038,-6.114008],[106.769853,-6.114335],[106.769726,-6.114852],[106.769824,-6.115122],[106.770061,-6.115301],[106.770233,-6.115614],[106.771264,-6.115781],[106.772458,-6.116062],[106.77334,-6.116473],[106.77362,-6.116654],[106.773769,-6.116784],[106.774043,-6.11716],[106.774599,-6.118222],[106.7745808,-6.1185496],[106.774476,-6.119067],[106.773995,-6.119656],[106.773499,-6.120215],[106.773349,-6.120951],[106.7734132,-6.121558],[106.7734283,-6.1216055],[106.7736964,-6.1218407],[106.7763487,-6.124167],[106.7765939,-6.1242019],[106.7774973,-6.1243459],[106.7788713,-6.1245599],[106.7806446,-6.124845],[106.7827456,-6.1251828],[106.7839136,-6.1254013],[106.787973,-6.126123],[106.7900161,-6.1265144],[106.7920722,-6.126913],[106.7919789,-6.125704],[106.792311,-6.125379],[106.7939333,-6.1245016],[106.7945419,-6.1246514],[106.7948914,-6.1246785],[106.7960762,-6.125008],[106.7973761,-6.125313],[106.7987126,-6.12534],[106.7993155,-6.1253285],[106.8000708,-6.1252927],[106.8018897,-6.1252217],[106.8018835,-6.1249721],[106.8018699,-6.124728],[106.8019314,-6.1246027],[106.8021356,-6.1242819],[106.8019386,-6.1241161],[106.8018129,-6.1240113],[106.802004,-6.1236067],[106.801932,-6.123532],[106.8020447,-6.1233613],[106.802183,-6.1234541],[106.8022923,-6.1233454],[106.8022408,-6.1232494],[106.8022891,-6.1231983],[106.8023695,-6.1232558],[106.8025527,-6.1230768],[106.8025109,-6.1229745],[106.8027338,-6.122743],[106.802893,-6.1224898],[106.8028407,-6.1224514],[106.8028793,-6.1223971],[106.8029998,-6.1223677],[106.8030066,-6.1222592],[106.8029271,-6.1222524],[106.8029281,-6.1221746],[106.8029763,-6.1221554],[106.8029731,-6.1220755],[106.8029152,-6.1219923],[106.8029024,-6.1219252],[106.8029635,-6.121922],[106.8029538,-6.1218485],[106.8028438,-6.1216925],[106.802831,-6.1214623],[106.802986,-6.1213081],[106.8029853,-6.1212001],[106.8029395,-6.120516],[106.8029462,-6.1198402],[106.802922,-6.1192294],[106.8027797,-6.1181057],[106.8026738,-6.1171798],[106.8025387,-6.1162973],[106.8024839,-6.1159956],[106.802397,-6.1156087],[106.8022781,-6.115014],[106.8020307,-6.114427],[106.801926,-6.114154],[106.8017049,-6.113887],[106.801434,-6.113644],[106.8011142,-6.113463],[106.8008658,-6.1130739],[106.8007932,-6.1129673],[106.800741,-6.1128048],[106.8006462,-6.1126097],[106.8005063,-6.1124818],[106.800307,-6.1124579],[106.8001783,-6.1124019],[106.8001253,-6.1123284],[106.7997651,-6.1122149],[106.7997394,-6.1123252],[106.7996365,-6.1123204],[106.7996576,-6.1122049],[106.7994999,-6.1121237],[106.7993262,-6.112095],[106.7992461,-6.1121385],[106.7991013,-6.1122049],[106.7988055,-6.1121442],[106.7985161,-6.1121953],[106.7984968,-6.1120323],[106.7984454,-6.1120354],[106.7983361,-6.1121474],[106.7980595,-6.1122145],[106.7978023,-6.1122145],[106.7976479,-6.1122049],[106.797529,-6.1120514],[106.7975322,-6.111687],[106.7976576,-6.1114568],[106.7976833,-6.1113033],[106.797664,-6.1111626],[106.7972492,-6.1111978],[106.7972589,-6.111412],[106.797201,-6.1117029],[106.7971463,-6.1117989],[106.7968826,-6.1120738],[106.7965257,-6.1124639],[106.7963489,-6.112563],[106.796219,-6.1123325],[106.7970721,-6.1116868],[106.7970456,-6.111383],[106.7970135,-6.1110552],[106.7969798,-6.1105469],[106.7969524,-6.1104605],[106.7967508,-6.1100979],[106.7963521,-6.1094713],[106.7962888,-6.1090317],[106.7962848,-6.1090039],[106.796103,-6.10844],[106.7960609,-6.1076808],[106.796024,-6.107015],[106.7958739,-6.105426],[106.7962137,-6.1045673],[106.7964308,-6.1028057],[106.7967046,-6.0993084],[106.7971597,-6.0954738],[106.7969435,-6.0943702],[106.7964307,-6.0940568],[106.7962649,-6.0939555],[106.7952005,-6.093898],[106.7949067,-6.0931575],[106.7934575,-6.0926915],[106.7916192,-6.0930305],[106.7908342,-6.093814],[106.7903275,-6.0979324],[106.7900831,-6.1002741],[106.7900542,-6.1017166],[106.7900079,-6.1040246],[106.7904042,-6.1067076],[106.7904313,-6.1080759],[106.7888048,-6.1081339],[106.7852624,-6.1081426],[106.7844778,-6.108669],[106.7838546,-6.1086615],[106.7827545,-6.1086666],[106.7811306,-6.1079662],[106.7810715,-6.1079372],[106.7778117,-6.1065574],[106.7765844,-6.1060379],[106.7765222,-6.106191],[106.7768905,-6.1063399],[106.7769487,-6.1064203],[106.7772995,-6.1065737],[106.7766738,-6.1082863],[106.7761013,-6.1080749],[106.7760349,-6.1082873],[106.7757232,-6.1082129],[106.7755241,-6.108756],[106.7754624,-6.1088993],[106.7751965,-6.1088529],[106.775092,-6.1090996],[106.7750236,-6.1092442],[106.7749199,-6.109471],[106.7747679,-6.109803],[106.774526,-6.11009],[106.774439,-6.110168],[106.7743252,-6.1101216],[106.7743667,-6.1099136],[106.7742599,-6.109765],[106.7750262,-6.1077624],[106.7746889,-6.1076243],[106.7749451,-6.1069481],[106.775487,-6.1069161],[106.7758134,-6.1060593],[106.7757633,-6.1060368],[106.7758875,-6.1057343],[106.7766173,-6.1039598],[106.7768738,-6.1033348],[106.7772074,-6.1025517],[106.777101,-6.102515],[106.7772453,-6.1021875],[106.7771934,-6.102173],[106.7766445,-6.1036142],[106.7750413,-6.1030171],[106.7749148,-6.1033721],[106.7749355,-6.1038113],[106.7743844,-6.1051891],[106.773873,-6.105111],[106.7739299,-6.1049174],[106.7728013,-6.1045859],[106.7726606,-6.1050281],[106.7720094,-6.1048367],[106.7721928,-6.1044951],[106.7714428,-6.1041738],[106.771707,-6.1035029],[106.7738928,-6.0983949],[106.7737057,-6.0983319],[106.7713212,-6.1036598],[106.7703224,-6.103351],[106.7697082,-6.103095],[106.7690135,-6.1026869],[106.7687816,-6.1022784],[106.7681341,-6.1016642],[106.76791,-6.1014515],[106.7676142,-6.1010194],[106.7674798,-6.1003324],[106.7671887,-6.1001659],[106.7670689,-6.1014204]]]
         }
      }
    ]
  }