{ "type": "FeatureCollection",
    "features": [
      { "type": "Feature",
         "geometry": {
           "type": "Polygon",
           "coordinates": 
              [[[106.7794344,-6.1612723],[106.7794614,-6.1614223],[106.7795254,-6.1615113],[106.7799794,-6.1615173],[106.7800764,-6.1615943],[106.7800264,-6.1617533],[106.7815634,-6.1618373],[106.7814984,-6.1621973],[106.7814424,-6.1625873],[106.7813724,-6.1630623],[106.7813354,-6.1633193],[106.7815364,-6.1634433],[106.7814254,-6.1639103],[106.7817414,-6.1639903],[106.7816574,-6.1643443],[106.7815684,-6.1646933],[106.7816854,-6.1647323],[106.7816674,-6.1648903],[106.7816514,-6.1650193],[106.782918,-6.165301],[106.784014,-6.165519],[106.784471,-6.165599],[106.785005,-6.16575],[106.78515,-6.165833],[106.785863,-6.166277],[106.786506,-6.16655],[106.7878524,-6.1667758],[106.787859,-6.166775],[106.7879197,-6.1667848],[106.7880882,-6.1668121],[106.788489,-6.166877],[106.788678,-6.166254],[106.788824,-6.165944],[106.789148,-6.164937],[106.789571,-6.163853],[106.790272,-6.162146],[106.790694,-6.161012],[106.791423,-6.159483],[106.791689,-6.158984],[106.791787,-6.15867],[106.792062,-6.158166],[106.792249,-6.15769],[106.792502,-6.157044],[106.792839,-6.156364],[106.792966,-6.156106],[106.793095,-6.155759],[106.793234,-6.155512],[106.793263,-6.155432],[106.792961,-6.155338],[106.792672,-6.155256],[106.792412,-6.15519],[106.792083,-6.155164],[106.790867,-6.155154],[106.790394,-6.155138],[106.789887,-6.155125],[106.789294,-6.155066],[106.788926,-6.15505],[106.788294,-6.155007],[106.787797,-6.15501],[106.787476,-6.154964],[106.787466,-6.154561],[106.787188,-6.154446],[106.786957,-6.153921],[106.786724,-6.153386],[106.787281,-6.152991],[106.787296,-6.152731],[106.78696,-6.152819],[106.783342,-6.15287],[106.7819684,-6.1528743],[106.7819554,-6.1531193],[106.7819514,-6.1532133],[106.7818074,-6.1532113],[106.7818054,-6.1533693],[106.7818121,-6.1534866],[106.7818094,-6.1535583],[106.7818414,-6.1536113],[106.7818394,-6.1536703],[106.7818104,-6.1537433],[106.7817894,-6.1537763],[106.7817724,-6.1538683],[106.7817494,-6.1539743],[106.7817214,-6.1540503],[106.7819094,-6.1540983],[106.7818574,-6.1546723],[106.7814294,-6.1548823],[106.7810014,-6.1551603],[106.7806164,-6.1555293],[106.7804284,-6.1556843],[106.7803044,-6.1559693],[106.7801004,-6.1562193],[106.7798984,-6.1568023],[106.7799044,-6.1572373],[106.7798904,-6.1576373],[106.7798334,-6.1580493],[106.7798154,-6.1584603],[106.7798164,-6.1589203],[106.7797824,-6.1593443],[106.7797684,-6.1598003],[106.7797314,-6.1599933],[106.7796364,-6.1605043],[106.7795664,-6.1607413],[106.7794344,-6.1612723]]]
         }
      }
    ]
  }