{ "type": "FeatureCollection",
    "features": [
      { "type": "Feature",
         "geometry": {
           "type": "Polygon",
           "coordinates": 
              [[[106.903286,-6.227122],[106.903423,-6.227172],[106.903323,-6.227412],[106.905083,-6.227914],[106.905255,-6.227963],[106.905114,-6.228251],[106.904899,-6.229235],[106.904848,-6.229602],[106.905735,-6.229573],[106.907946,-6.229736],[106.9079914,-6.2297375],[106.9085042,-6.229755],[106.908651,-6.22976],[106.908668,-6.23049],[106.908677,-6.23049],[106.908771,-6.230805],[106.90875,-6.23115],[106.908833,-6.231726],[106.908746,-6.232243],[106.908758,-6.233239],[106.908813,-6.233342],[106.909887,-6.233426],[106.909981,-6.23344],[106.909982,-6.237133],[106.909875,-6.237721],[106.9098635,-6.2405888],[106.9099655,-6.2406794],[106.9105931,-6.2407008],[106.9109445,-6.240705],[106.91095,-6.24087],[106.9108956,-6.241638],[106.9107879,-6.2422624],[106.9105851,-6.2425925],[106.9104039,-6.2430834],[106.9100555,-6.2444063],[106.9101033,-6.2444593],[106.9100343,-6.2446523],[106.9099419,-6.2449391],[106.9099046,-6.2451284],[106.909995,-6.2451975],[106.9100701,-6.2452668],[106.9099842,-6.2455974],[106.9099091,-6.2460827],[106.9098796,-6.2463666],[106.9100888,-6.246436],[106.9100942,-6.246564],[106.9100298,-6.2467773],[106.9098957,-6.2471399],[106.9098583,-6.2472768],[106.9098146,-6.2473612],[106.9103868,-6.2475109],[106.9111252,-6.2477257],[106.9116779,-6.247864],[106.9122967,-6.248024],[106.9129108,-6.2481211],[106.9132593,-6.248162],[106.9136928,-6.2482045],[106.915398,-6.2482266],[106.9171511,-6.2480596],[106.9175889,-6.2480251],[106.918064,-6.2479805],[106.9185992,-6.2479326],[106.9189611,-6.2479073],[106.9192306,-6.247891],[106.9195085,-6.2478876],[106.9197601,-6.2478667],[106.9199347,-6.2478509],[106.920373,-6.2478287],[106.9206127,-6.2478031],[106.9210817,-6.2477782],[106.9209,-6.247037],[106.920176,-6.24517],[106.920147,-6.244892],[106.920213,-6.244543],[106.920558,-6.243634],[106.921269,-6.243053],[106.92153,-6.242345],[106.921588,-6.241813],[106.921653,-6.241633],[106.921832,-6.241522],[106.921956,-6.241419],[106.922112,-6.24131],[106.9222,-6.241213],[106.922262,-6.241103],[106.922369,-6.240976],[106.922377,-6.240804],[106.922375,-6.240699],[106.922301,-6.240513],[106.922148,-6.2401493],[106.922399,-6.239323],[106.922602,-6.238514],[106.923024,-6.236607],[106.92366,-6.235154],[106.923891,-6.233767],[106.923743,-6.232707],[106.9237146,-6.2325217],[106.923424,-6.230627],[106.923401,-6.230523],[106.923298,-6.230111],[106.923255,-6.229717],[106.923295,-6.22914],[106.923453,-6.228618],[106.923888,-6.22806],[106.924328,-6.227122],[106.924477,-6.226792],[106.924783,-6.226062],[106.924744,-6.225151],[106.924576,-6.224117],[106.924505,-6.223299],[106.924487,-6.222529],[106.9244448,-6.222239],[106.924377,-6.221773],[106.92433,-6.221212],[106.9242639,-6.2203732],[106.92426,-6.220308],[106.923694,-6.220375],[106.923377,-6.220407],[106.92237,-6.220407],[106.921838,-6.220456],[106.92118,-6.220457],[106.920273,-6.22049],[106.918773,-6.220646],[106.917649,-6.220824],[106.91669,-6.220955],[106.916462,-6.221357],[106.916368,-6.2213026],[106.9156959,-6.2209492],[106.9152689,-6.2216452],[106.9133809,-6.2238702],[106.9125589,-6.2250692],[106.911863,-6.224833],[106.911396,-6.224636],[106.910708,-6.22433],[106.910295,-6.223953],[106.909827,-6.22348],[106.9096624,-6.2233286],[106.9095421,-6.2232417],[106.9092661,-6.2229497],[106.9089181,-6.2228937],[106.9087431,-6.2228877],[106.9057991,-6.2229407],[106.9053801,-6.2237437],[106.9050701,-6.2242107],[106.9048021,-6.2246487],[106.9047297,-6.2247617],[106.903951,-6.225984],[106.903697,-6.226475],[106.903286,-6.227122]]]
         }
      }
    ]
  }