{ "type": "FeatureCollection",
    "features": [
      { "type": "Feature",
         "geometry": {
           "type": "Polygon",
           "coordinates": 
              [[[106.701711,-6.1067227],[106.7034717,-6.1090423],[106.70466,-6.1106278],[106.706289,-6.1127653],[106.7067778,-6.1133964],[106.7076222,-6.1143661],[106.7095026,-6.116526],[106.7110615,-6.1183814],[106.7106974,-6.1187983],[106.709915,-6.1195728],[106.709738,-6.119748],[106.708856,-6.12056],[106.708209,-6.121123],[106.7076736,-6.1216591],[106.707417,-6.121926],[106.706563,-6.122569],[106.705904,-6.12316],[106.7075863,-6.1247614],[106.708293,-6.125434],[106.709491,-6.1266846],[106.711031,-6.128299],[106.7113652,-6.1286627],[106.7120189,-6.1293742],[106.7121943,-6.1295652],[106.7126162,-6.1300244],[106.7136601,-6.1311606],[106.7141604,-6.1317051],[106.714254,-6.131807],[106.714541,-6.131969],[106.71477,-6.132076],[106.715012,-6.132178],[106.715256,-6.132094],[106.7153673,-6.1319704],[106.7159772,-6.1315359],[106.7163876,-6.1311746],[106.7165998,-6.1310106],[106.7166062,-6.1310065],[106.7170174,-6.1306604],[106.7172471,-6.130479],[106.7174337,-6.1303695],[106.7177376,-6.1300903],[106.7180708,-6.1299362],[106.7181616,-6.1299079],[106.7184396,-6.1296871],[106.7185816,-6.1295809],[106.7187442,-6.1294377],[106.7188269,-6.1292317],[106.7189991,-6.1290605],[106.7192248,-6.1288821],[106.7192038,-6.1288564],[106.7190895,-6.1286892],[106.7190141,-6.1285831],[106.7194012,-6.1281012],[106.7199095,-6.1274051],[106.7201997,-6.1270102],[106.7204775,-6.1267857],[106.7206688,-6.1267161],[106.721152,-6.12701],[106.7212689,-6.1270045],[106.7216086,-6.1268899],[106.7218972,-6.1265778],[106.7222493,-6.1262805],[106.7224959,-6.1260719],[106.723422,-6.12597],[106.724002,-6.126182],[106.7243895,-6.1263424],[106.7252864,-6.1253926],[106.725778,-6.1250015],[106.7261375,-6.1247495],[106.7268622,-6.1242416],[106.727137,-6.1240672],[106.7271995,-6.1238113],[106.7273225,-6.1239398],[106.7274368,-6.1238707],[106.7279906,-6.1237223],[106.7283659,-6.1236799],[106.7286019,-6.1237197],[106.7285997,-6.1236422],[106.7286013,-6.1232564],[106.7290442,-6.1232621],[106.7298371,-6.1227078],[106.7300398,-6.1229174],[106.730326,-6.123228],[106.730592,-6.123339],[106.730752,-6.122954],[106.7310269,-6.1225084],[106.73155,-6.121542],[106.7313519,-6.1213474],[106.7310576,-6.121062],[106.7307718,-6.1207833],[106.7298525,-6.1198872],[106.7292912,-6.1193399],[106.7291563,-6.1192084],[106.7290259,-6.1190904],[106.7286251,-6.1187277],[106.7285131,-6.1186264],[106.728085,-6.1181953],[106.727575,-6.1176817],[106.7271185,-6.117134],[106.726871,-6.116837],[106.7257609,-6.1153885],[106.7254786,-6.11502],[106.725005,-6.114402],[106.7246608,-6.1140043],[106.7246037,-6.1139453],[106.724367,-6.1136409],[106.7240881,-6.1133002],[106.7237814,-6.1129255],[106.7237453,-6.1128814],[106.7232662,-6.1123341],[106.722474,-6.111429],[106.722173,-6.110972],[106.7217221,-6.1103461],[106.7216902,-6.1103028],[106.7205601,-6.108768],[106.720214,-6.108298],[106.719843,-6.107866],[106.7184853,-6.1058956],[106.7180544,-6.1054328],[106.7173661,-6.1043723],[106.7166217,-6.103359],[106.7165628,-6.1032789],[106.7161191,-6.1025862],[106.7157941,-6.1019714],[106.7155547,-6.1015176],[106.7153851,-6.1011666],[106.7151856,-6.1007538],[106.7146747,-6.0996937],[106.7144825,-6.0992816],[106.714283,-6.0988484],[106.7136116,-6.099615],[106.713557,-6.0996701],[106.713039,-6.100262],[106.712556,-6.10089],[106.7124565,-6.1011716],[106.712281,-6.101668],[106.711998,-6.101966],[106.711524,-6.102647],[106.711063,-6.103199],[106.710504,-6.103851],[106.710026,-6.104123],[106.709841,-6.104143],[106.708618,-6.104193],[106.708162,-6.104258],[106.706973,-6.10456],[106.7067952,-6.1046037],[106.7061711,-6.1047595],[106.7055024,-6.1052908],[106.7053443,-6.1053487],[106.704903,-6.1055104],[106.7044522,-6.1056269],[106.703641,-6.105812],[106.703117,-6.106083],[106.702621,-6.106273],[106.701711,-6.1067227]]]
         }
      }
    ]
  }