{ "type": "FeatureCollection",
    "features": [
      { "type": "Feature",
         "geometry": {
           "type": "Polygon",
           "coordinates": 
              [[[106.8258166,-6.2613109],[106.8259864,-6.2620791],[106.8260767,-6.2628677],[106.8262318,-6.2639046],[106.8262525,-6.2641098],[106.826269,-6.2645531],[106.8262962,-6.2648783],[106.8264002,-6.2650697],[106.8264876,-6.2652394],[106.8265582,-6.2654246],[106.8266354,-6.2655858],[106.8268541,-6.2655698],[106.8270679,-6.2655157],[106.827321,-6.265479],[106.8273894,-6.265548],[106.8274621,-6.2655832],[106.8276292,-6.2655928],[106.8277741,-6.2656255],[106.8278362,-6.2657268],[106.8278033,-6.2660116],[106.8277682,-6.2661365],[106.8278795,-6.2661754],[106.8279485,-6.2663254],[106.8279516,-6.2664335],[106.8281142,-6.2666239],[106.8283209,-6.2668225],[106.8283402,-6.2669762],[106.8283911,-6.2670975],[106.8283699,-6.2672631],[106.8283906,-6.2673533],[106.8283997,-6.267394],[106.8285163,-6.2675335],[106.8285187,-6.2676158],[106.8284977,-6.2676851],[106.8284196,-6.267751],[106.8284093,-6.2677987],[106.8284417,-6.2678896],[106.8284256,-6.2679883],[106.8284606,-6.2681194],[106.8285048,-6.2682471],[106.8285686,-6.2682917],[106.8286131,-6.2683959],[106.8287223,-6.268654],[106.8287471,-6.2688465],[106.8289366,-6.269078],[106.8290644,-6.2692316],[106.8291218,-6.2694819],[106.8291345,-6.2696249],[106.8290232,-6.2698257],[106.8288736,-6.2700747],[106.8287776,-6.270294],[106.828941,-6.2704648],[106.828902,-6.2706184],[106.8286801,-6.2707254],[106.8286687,-6.2708867],[106.8287058,-6.2710301],[106.8287262,-6.2712016],[106.8288021,-6.2714056],[106.8288219,-6.2714609],[106.8288246,-6.2715051],[106.8288069,-6.2715449],[106.8287594,-6.271616],[106.8286275,-6.2718208],[106.8286186,-6.2719735],[106.8286872,-6.2720945],[106.8287814,-6.2722302],[106.8288913,-6.2722755],[106.8288954,-6.2724148],[106.8288583,-6.2725295],[106.8287598,-6.2725162],[106.8287388,-6.2726319],[106.8288576,-6.2727404],[106.828916,-6.2728696],[106.8287677,-6.2730211],[106.828677,-6.2730785],[106.828644,-6.2731809],[106.8286646,-6.2732506],[106.8288163,-6.2732944],[106.8288824,-6.2734052],[106.8289649,-6.2737499],[106.8287718,-6.2747786],[106.828644,-6.274877],[106.8287628,-6.2750134],[106.8301684,-6.2749045],[106.8321473,-6.2747663],[106.8324451,-6.2747526],[106.8326148,-6.2747418],[106.8326341,-6.274182],[106.832608,-6.273992],[106.8325647,-6.2737903],[106.832386,-6.2734522],[106.8322917,-6.273348],[106.8322217,-6.2732707],[106.8322121,-6.2731751],[106.8322046,-6.2730488],[106.8321845,-6.2729005],[106.8321568,-6.2726252],[106.8321076,-6.2725016],[106.8319862,-6.2721962],[106.8321693,-6.2719531],[106.8324327,-6.2716034],[106.8322433,-6.271434],[106.8321481,-6.2713128],[106.8320281,-6.2711601],[106.8323328,-6.2707707],[106.8323468,-6.2706662],[106.8323436,-6.270548],[106.8323475,-6.2704668],[106.832354,-6.2703967],[106.8323753,-6.2702855],[106.8323895,-6.2701882],[106.8324605,-6.2700792],[106.8327236,-6.2697075],[106.8326306,-6.2695449],[106.8325215,-6.269435],[106.8325025,-6.2692741],[106.8325896,-6.269242],[106.8326574,-6.2691939],[106.8327413,-6.2691169],[106.8328832,-6.2691041],[106.8328897,-6.268886],[106.8327509,-6.268825],[106.8326703,-6.2687352],[106.8325412,-6.2686871],[106.8323798,-6.2686935],[106.8323282,-6.2685428],[106.8321411,-6.2685107],[106.832083,-6.2682829],[106.8319976,-6.2681838],[106.8319313,-6.2678756],[106.8318021,-6.2676937],[106.8319041,-6.2672206],[106.8324906,-6.2671868],[106.8329357,-6.2671591],[106.8331706,-6.2671445],[106.833321,-6.2669768],[106.833786,-6.2674091],[106.8343182,-6.2676684],[106.8348957,-6.267534],[106.8348282,-6.2659954],[106.8358547,-6.2660155],[106.8397637,-6.2661231],[106.8407698,-6.2661306],[106.8419316,-6.2661559],[106.8427419,-6.266139],[106.8441077,-6.2661395],[106.843916,-6.2656272],[106.8434814,-6.2644661],[106.8434304,-6.2636803],[106.8433631,-6.2631115],[106.8433507,-6.2628835],[106.8433236,-6.2624722],[106.8458204,-6.2623951],[106.8464887,-6.2623745],[106.84689,-6.2623621],[106.8469362,-6.2623616],[106.8476465,-6.2623537],[106.8483806,-6.2622774],[106.8493566,-6.2622222],[106.8500482,-6.2621831],[106.8520645,-6.262069],[106.8524373,-6.2614832],[106.8516022,-6.2613847],[106.8514717,-6.2607166],[106.8513611,-6.2599878],[106.8513569,-6.2596736],[106.8514425,-6.2589378],[106.8513972,-6.2588462],[106.8506289,-6.2588527],[106.8498469,-6.2588629],[106.8493813,-6.2588667],[106.8492768,-6.2588428],[106.849287,-6.2579346],[106.8492729,-6.256721],[106.849598,-6.255641],[106.848352,-6.255641],[106.844275,-6.255619],[106.842999,-6.2556866],[106.843391,-6.257912],[106.843455,-6.258625],[106.842109,-6.258662],[106.840484,-6.258722],[106.8380995,-6.2587373],[106.837638,-6.258844],[106.8353032,-6.2588404],[106.835023,-6.2588443],[106.835023,-6.260939],[106.8290698,-6.2611119],[106.8278487,-6.2611327],[106.826733,-6.261102],[106.8260281,-6.2610221],[106.825824,-6.261125],[106.8258166,-6.2613109]]]
         }
      }
    ]
  }