{ "type": "FeatureCollection",
    "features": [
      { "type": "Feature",
         "geometry": {
           "type": "Polygon",
           "coordinates": 
              [[[106.8632179,-6.1641423],[106.8635215,-6.1644203],[106.8638353,-6.1646296],[106.8642282,-6.1647703],[106.8645794,-6.1647837],[106.8650788,-6.1648819],[106.865365,-6.165008],[106.8655189,-6.1651183],[106.8659409,-6.165513],[106.8663194,-6.1657853],[106.8665826,-6.165988],[106.867097,-6.166284],[106.8675245,-6.166497],[106.8678827,-6.166648],[106.868256,-6.166691],[106.8685639,-6.1667483],[106.8692706,-6.1670057],[106.8698777,-6.1672617],[106.8708968,-6.1676913],[106.871067,-6.168093],[106.873033,-6.167346],[106.873291,-6.167244],[106.875596,-6.166454],[106.8765048,-6.1661917],[106.877042,-6.166129],[106.877891,-6.166134],[106.8783058,-6.1661972],[106.8788769,-6.1662919],[106.880953,-6.1639034],[106.8820391,-6.162307],[106.8793881,-6.1629988],[106.8773013,-6.1635028],[106.87695,-6.163484],[106.875815,-6.162684],[106.874529,-6.161929],[106.874186,-6.161649],[106.872702,-6.160765],[106.871693,-6.160177],[106.8702224,-6.1593637],[106.868163,-6.15818],[106.8678724,-6.15803],[106.8677227,-6.1579403],[106.8669058,-6.1575067],[106.8663674,-6.1584424],[106.8649884,-6.1609429],[106.8645032,-6.1617855],[106.8640228,-6.1627237],[106.8638205,-6.163125],[106.8632179,-6.1641423]]]
         }
      }
    ]
  }