{ "type": "FeatureCollection",
    "features": [
      { "type": "Feature",
         "geometry": {
           "type": "Polygon",
           "coordinates": 
              [[[106.7956468,-6.155317],[106.795956,-6.155978],[106.796295,-6.156828],[106.796623,-6.15757],[106.7968424,-6.158098],[106.797017,-6.158543],[106.7971761,-6.158901],[106.797428,-6.159466],[106.797843,-6.160431],[106.79808,-6.160997],[106.798229,-6.161343],[106.799453,-6.160811],[106.8002059,-6.1604653],[106.8003922,-6.1603337],[106.8006282,-6.160146],[106.8008316,-6.1599503],[106.80095,-6.1596065],[106.8011846,-6.1593923],[106.8013454,-6.158803],[106.801394,-6.1571947],[106.801374,-6.156944],[106.801366,-6.156785],[106.801323,-6.156251],[106.801291,-6.155939],[106.8012804,-6.155633],[106.8012916,-6.1547967],[106.8002912,-6.1548823],[106.798866,-6.1549843],[106.7982765,-6.1550177],[106.7982907,-6.1554537],[106.7980487,-6.1554627],[106.7972624,-6.155449],[106.7967757,-6.155422],[106.7962715,-6.1553267],[106.7956468,-6.155317]]]
         }
      }
    ]
  }