{ "type": "FeatureCollection",
    "features": [
      { "type": "Feature",
         "geometry": {
           "type": "Polygon",
           "coordinates": 
              [[[106.8060628,-6.2474875],[106.8066196,-6.2482401],[106.807151,-6.248856],[106.8075754,-6.2491807],[106.8082112,-6.2494785],[106.8091741,-6.2497703],[106.8093234,-6.249421],[106.8094634,-6.2490607],[106.809549,-6.2487024],[106.809707,-6.2486371],[106.8099236,-6.2485581],[106.810118,-6.24838],[106.81029,-6.2481852],[106.8105821,-6.2478833],[106.8108338,-6.2477214],[106.8109924,-6.2476195],[106.8112161,-6.2474699],[106.8114204,-6.2472516],[106.8115349,-6.2471859],[106.8119301,-6.247254],[106.8119663,-6.2469779],[106.8120121,-6.246848],[106.8121579,-6.2467632],[106.8124398,-6.2468449],[106.8126499,-6.2467299],[106.8127721,-6.2462516],[106.8129956,-6.2460927],[106.8129955,-6.2457808],[106.8130692,-6.2457502],[106.8131528,-6.2455944],[106.8132917,-6.2456101],[106.8134143,-6.2456729],[106.8135927,-6.2456687],[106.8138343,-6.2455298],[106.8138625,-6.2453922],[106.813861,-6.2452371],[106.8138058,-6.2451286],[106.813789,-6.2449763],[106.8137774,-6.2448982],[106.8138103,-6.2447941],[106.8138848,-6.2447337],[106.814233,-6.244559],[106.8141497,-6.2443568],[106.8142025,-6.2442976],[106.814525,-6.244168],[106.8145387,-6.2440638],[106.8146071,-6.2440084],[106.81466,-6.243926],[106.8147306,-6.2436777],[106.814712,-6.243244],[106.81471,-6.2431195],[106.8147159,-6.2430722],[106.8147483,-6.2429921],[106.8148626,-6.2429135],[106.815196,-6.2428666],[106.815416,-6.243056],[106.815489,-6.24322],[106.815551,-6.243246],[106.8157181,-6.2429637],[106.8156274,-6.24267],[106.815626,-6.2424725],[106.815671,-6.242342],[106.816004,-6.242332],[106.8160265,-6.2422649],[106.815767,-6.24167],[106.8161772,-6.2408835],[106.8164343,-6.2410658],[106.8170713,-6.2400461],[106.817767,-6.238956],[106.8175003,-6.2388411],[106.8171202,-6.2387392],[106.8167098,-6.2388239],[106.8161292,-6.2389271],[106.8156769,-6.2388824],[106.8150856,-6.2387765],[106.8144877,-6.2387255],[106.8141547,-6.2386926],[106.813377,-6.2387338],[106.8112061,-6.2389929],[106.8105362,-6.2390325],[106.8090924,-6.2391186],[106.8082428,-6.2391378],[106.8072797,-6.2391595],[106.8073078,-6.2405202],[106.8073674,-6.2410802],[106.8075884,-6.2418273],[106.807901,-6.2428843],[106.8080631,-6.2432731],[106.8081949,-6.2438633],[106.808484,-6.2447914],[106.8081317,-6.2449097],[106.8075906,-6.2457126],[106.8069449,-6.2464154],[106.8066108,-6.2468502],[106.8064981,-6.2469677],[106.8060628,-6.2474875]]]
         }
      }
    ]
  }