{ "type": "FeatureCollection",
    "features": [
      { "type": "Feature",
         "geometry": {
           "type": "Polygon",
           "coordinates": 
              [[[106.8467742,-6.2788575],[106.8467786,-6.2790885],[106.8467883,-6.2794114],[106.8474162,-6.2797595],[106.8474201,-6.2797617],[106.8478732,-6.2799722],[106.8481025,-6.2800419],[106.8485029,-6.2798495],[106.8490938,-6.2796798],[106.8491592,-6.2796657],[106.8499787,-6.2795279],[106.8502678,-6.2795356],[106.8504381,-6.2796422],[106.850427,-6.2797862],[106.8503455,-6.2798803],[106.8500783,-6.280123],[106.8498509,-6.2802577],[106.8496925,-6.2803528],[106.8495,-6.2804897],[106.8493567,-6.2806428],[106.8493256,-6.2806763],[106.8490771,-6.280984],[106.8489693,-6.2811667],[106.8485774,-6.2816319],[106.8484724,-6.2817676],[106.8480974,-6.2822524],[106.847617,-6.2828722],[106.847573,-6.283167],[106.8476661,-6.2832511],[106.8478706,-6.2834359],[106.8482141,-6.2834801],[106.8484347,-6.2834309],[106.8485738,-6.2833203],[106.8487509,-6.2833907],[106.8488248,-6.2834637],[106.848885,-6.2836446],[106.8488404,-6.2837619],[106.8487714,-6.2838486],[106.8487185,-6.2838902],[106.8486573,-6.2839489],[106.8485662,-6.284052],[106.8484604,-6.2841613],[106.8483638,-6.284238],[106.848207,-6.2843864],[106.8480375,-6.2845272],[106.8478807,-6.2846845],[106.8477884,-6.2847655],[106.847696,-6.2848465],[106.8475327,-6.2851083],[106.8474204,-6.2854246],[106.847403,-6.285676],[106.8474041,-6.2860424],[106.8474082,-6.2861918],[106.847416,-6.2863749],[106.8477121,-6.287107],[106.847802,-6.28721],[106.848555,-6.288096],[106.8489613,-6.2883158],[106.8494349,-6.288572],[106.8497739,-6.288511],[106.8499699,-6.2883014],[106.8503504,-6.287911],[106.8506879,-6.2879549],[106.8507437,-6.2879865],[106.8510733,-6.2881687],[106.8512069,-6.2882883],[106.8512643,-6.2884333],[106.8512687,-6.2888153],[106.8511495,-6.2891491],[106.8510832,-6.2893159],[106.8510567,-6.2893994],[106.850986,-6.2895048],[106.8507563,-6.2898298],[106.8504602,-6.2899264],[106.8499788,-6.2900829],[106.8496646,-6.290143],[106.8494883,-6.2901767],[106.8493336,-6.2904402],[106.8493518,-6.2905207],[106.8493985,-6.2907269],[106.849771,-6.2916478],[106.8500273,-6.2922187],[106.8501185,-6.2924155],[106.850204,-6.292592],[106.8502791,-6.2926579],[106.8504426,-6.292794],[106.8507297,-6.2929038],[106.8508334,-6.2929291],[106.8510371,-6.2929789],[106.8512805,-6.292887],[106.851423,-6.2927556],[106.851578,-6.2925173],[106.851582,-6.2923121],[106.8516196,-6.2921598],[106.851677,-6.2916911],[106.8517159,-6.2911596],[106.8518754,-6.2910261],[106.8523367,-6.2910106],[106.8525527,-6.2909449],[106.8526923,-6.2908844],[106.8527979,-6.2908385],[106.8531209,-6.2906006],[106.8533876,-6.2904342],[106.8536919,-6.2903116],[106.8539088,-6.2902859],[106.8541543,-6.2902543],[106.8544034,-6.2903259],[106.8544988,-6.2904168],[106.8545689,-6.2905348],[106.8545864,-6.2906238],[106.854577,-6.290781],[106.8545431,-6.2909372],[106.854503,-6.2910964],[106.8544531,-6.2912266],[106.8543217,-6.2915697],[106.8542186,-6.2917399],[106.8537807,-6.2923299],[106.8535413,-6.2926607],[106.8532883,-6.2929373],[106.8531248,-6.2930862],[106.8529808,-6.2932217],[106.8527551,-6.2934538],[106.8526512,-6.2935876],[106.8525577,-6.2937048],[106.8523707,-6.2939796],[106.8523522,-6.2941969],[106.8522915,-6.2945217],[106.8522682,-6.2947079],[106.8524106,-6.2948465],[106.8525196,-6.2947537],[106.8527979,-6.2943784],[106.8529536,-6.2942005],[106.8531196,-6.2940367],[106.8532163,-6.2939412],[106.8532961,-6.2938832],[106.853409,-6.2938329],[106.8538157,-6.293684],[106.8539273,-6.2936791],[106.8540646,-6.2937198],[106.8541842,-6.2934625],[106.8547281,-6.2934467],[106.8552105,-6.2934098],[106.8554301,-6.2940256],[106.8556607,-6.2943082],[106.8558706,-6.2944726],[106.8557806,-6.2934588],[106.8557781,-6.2927688],[106.8557573,-6.2924954],[106.8557445,-6.292223],[106.8556999,-6.2919125],[106.8556999,-6.2916147],[106.8556808,-6.2913803],[106.8556856,-6.2912599],[106.8556494,-6.2911986],[106.8556824,-6.2911158],[106.8556696,-6.2909416],[106.8556648,-6.2908544],[106.8556537,-6.2907546],[106.8556553,-6.2906897],[106.8556489,-6.290563],[106.8556521,-6.2904584],[106.8556505,-6.2903539],[106.8556346,-6.2901987],[106.8556266,-6.2901227],[106.855626,-6.2900707],[106.8556258,-6.2900581],[106.855625,-6.2899959],[106.8556215,-6.2899405],[106.8556203,-6.2899225],[106.855617,-6.2898708],[106.8556147,-6.2898175],[106.8556164,-6.2897514],[106.8556134,-6.2896372],[106.8556091,-6.2895192],[106.8556043,-6.2894431],[106.8555995,-6.2892927],[106.8555883,-6.2892055],[106.8555868,-6.2889505],[106.8555899,-6.2888365],[106.8555784,-6.288762],[106.8555782,-6.2886579],[106.855574,-6.2885134],[106.8555676,-6.2884484],[106.8555629,-6.2883866],[106.8555629,-6.2882932],[106.8555501,-6.2881601],[106.8555421,-6.2880683],[106.8555389,-6.2879558],[106.8555342,-6.2877451],[106.8555294,-6.2876596],[106.8555258,-6.2875433],[106.8555166,-6.2873903],[106.8555023,-6.287251],[106.8554975,-6.2871227],[106.8554911,-6.287034],[106.8554768,-6.2868534],[106.855488,-6.2867583],[106.8554816,-6.2866665],[106.8554704,-6.2865762],[106.8554609,-6.2864621],[106.8554675,-6.2863719],[106.8554631,-6.2862521],[106.8554497,-6.2861517],[106.8554449,-6.2860456],[106.8554201,-6.2859625],[106.8553954,-6.2858795],[106.8554065,-6.2857735],[106.8553702,-6.2856748],[106.8553708,-6.285422],[106.8553637,-6.285294],[106.8553535,-6.2851559],[106.8553444,-6.2849976],[106.8553237,-6.2847573],[106.8553176,-6.2846316],[106.8553038,-6.2844863],[106.8552954,-6.2843157],[106.8553172,-6.284132],[106.855314,-6.2839799],[106.8553044,-6.2838532],[106.8552948,-6.2836853],[106.8552821,-6.283511],[106.8552917,-6.2833716],[106.8552917,-6.2832037],[106.8552757,-6.2830454],[106.855288,-6.2828858],[106.8552757,-6.282681],[106.8552725,-6.2825417],[106.8552662,-6.2824403],[106.8552598,-6.2822819],[106.8552534,-6.2821235],[106.8552279,-6.2819302],[106.8552311,-6.2817845],[106.8552247,-6.2816071],[106.8552215,-6.2814709],[106.855196,-6.2810781],[106.8551578,-6.2807866],[106.8551531,-6.2805736],[106.8551514,-6.2804952],[106.8551387,-6.2802734],[106.8551169,-6.2799165],[106.8551102,-6.2797351],[106.8550944,-6.2795984],[106.8550921,-6.2794864],[106.8550831,-6.2793274],[106.8550763,-6.2792087],[106.8550454,-6.2791595],[106.8550417,-6.2789859],[106.8550245,-6.2787835],[106.8550583,-6.2787181],[106.8550493,-6.2785927],[106.8550425,-6.2784605],[106.8550403,-6.2783507],[106.854994,-6.278277],[106.8549917,-6.2781532],[106.854978,-6.2780263],[106.8550245,-6.2778893],[106.8550313,-6.2777549],[106.8550696,-6.2776563],[106.8551169,-6.2775241],[106.8551372,-6.2774547],[106.8551755,-6.2773763],[106.8552183,-6.2772665],[106.8552499,-6.2771971],[106.8552333,-6.2771118],[106.8553093,-6.2770383],[106.8553814,-6.276886],[106.8554355,-6.2767695],[106.8555256,-6.2766262],[106.8556248,-6.2763932],[106.8557002,-6.2761961],[106.8557575,-6.2761042],[106.8557748,-6.2760799],[106.8558149,-6.2759934],[106.8558787,-6.2758413],[106.8559392,-6.2757177],[106.8560412,-6.2755213],[106.8561113,-6.2753534],[106.8561814,-6.2752014],[106.8562834,-6.2750303],[106.8563503,-6.2748687],[106.85643,-6.2747135],[106.8564938,-6.2745551],[106.8565989,-6.2743365],[106.8567041,-6.2741242],[106.8567622,-6.2739743],[106.8569093,-6.2737847],[106.857004,-6.2735794],[106.8570621,-6.2733449],[106.8571377,-6.2732263],[106.8572154,-6.2730893],[106.8573309,-6.2729223],[106.8574297,-6.2727421],[106.8574849,-6.2725364],[106.8575957,-6.2723485],[106.8577654,-6.2720842],[106.8578758,-6.2718646],[106.8579043,-6.2716992],[106.8580035,-6.2714617],[106.8582146,-6.2710577],[106.8582703,-6.2709614],[106.8583867,-6.2707599],[106.8585205,-6.2704811],[106.8586416,-6.2702973],[106.85875,-6.2700756],[106.8588711,-6.2698221],[106.8589592,-6.2695894],[106.8590751,-6.2694293],[106.8593235,-6.2688421],[106.8594496,-6.268591],[106.8598921,-6.2676891],[106.8592026,-6.2676803],[106.858663,-6.2677185],[106.8580806,-6.2677218],[106.8575581,-6.267667],[106.8574449,-6.2676551],[106.8571577,-6.2676263],[106.8569464,-6.2676222],[106.856739,-6.2676122],[106.856164,-6.2676026],[106.8555807,-6.2675715],[106.8556016,-6.2676782],[106.8556414,-6.267895],[106.85568,-6.268069],[106.8557207,-6.2683244],[106.8559008,-6.2687283],[106.8563749,-6.26981],[106.856555,-6.270151],[106.8566376,-6.270373],[106.856447,-6.270544],[106.8560687,-6.2705539],[106.8558333,-6.27046],[106.8555938,-6.2700656],[106.855379,-6.269639],[106.855139,-6.269579],[106.8549493,-6.2696382],[106.8549118,-6.2697622],[106.8548749,-6.2698814],[106.8548754,-6.270374],[106.8549124,-6.2705418],[106.8550129,-6.2706768],[106.8552669,-6.2708999],[106.8559012,-6.2713312],[106.8560647,-6.271501],[106.8562713,-6.2716025],[106.856582,-6.271737],[106.856701,-6.2718572],[106.8568726,-6.2720961],[106.8569445,-6.2724391],[106.8567272,-6.2727399],[106.8563776,-6.2728222],[106.8554531,-6.2726488],[106.8551851,-6.272505],[106.8549093,-6.2723514],[106.8545798,-6.2720277],[106.8540709,-6.2719058],[106.8537954,-6.2719216],[106.8535827,-6.2719325],[106.8535075,-6.2723169],[106.8535016,-6.2723557],[106.853513,-6.2725562],[106.8535866,-6.2727399],[106.8535678,-6.272958],[106.853527,-6.2731704],[106.8533545,-6.2733398],[106.8532397,-6.2733799],[106.8530662,-6.2734103],[106.8524565,-6.2732787],[106.8519924,-6.2732194],[106.8518542,-6.2732543],[106.85152,-6.2734263],[106.8514036,-6.2736354],[106.8513882,-6.2736673],[106.851362,-6.2737135],[106.8513159,-6.2738047],[106.8513397,-6.2740605],[106.8514684,-6.2742637],[106.8514949,-6.274302],[106.8515427,-6.2743777],[106.8517555,-6.2747517],[106.8519526,-6.2751291],[106.8519453,-6.2753028],[106.8519331,-6.2755351],[106.8518141,-6.2758609],[106.8517578,-6.2760422],[106.851338,-6.2765494],[106.8509222,-6.2767067],[106.8505859,-6.2767452],[106.8498303,-6.2765199],[106.8494445,-6.276512],[106.8491164,-6.2767518],[106.8487943,-6.2773133],[106.8481324,-6.2779379],[106.8477227,-6.278235],[106.8475191,-6.278338],[106.8473407,-6.2784622],[106.8468755,-6.2787871],[106.8467742,-6.2788575]]]
         }
      }
    ]
  }