{ "type": "FeatureCollection",
    "features": [
      { "type": "Feature",
         "geometry": {
           "type": "Polygon",
           "coordinates": 
              [[[106.7583156,-6.2281504],[106.7583763,-6.2282404],[106.7584425,-6.2282928],[106.7584333,-6.2286955],[106.7584211,-6.2287399],[106.758437,-6.2292642],[106.7584512,-6.2293497],[106.7584834,-6.2296264],[106.7584614,-6.229912],[106.758455,-6.2301178],[106.7584462,-6.2304008],[106.7584784,-6.2311051],[106.7588126,-6.231102],[106.75916,-6.2310955],[106.7591719,-6.2309641],[106.759308,-6.230961],[106.7595853,-6.2311359],[106.7595844,-6.2312276],[106.7597291,-6.2315205],[106.75976,-6.2317961],[106.7597833,-6.2319808],[106.7597545,-6.2323095],[106.7597238,-6.2327511],[106.7597298,-6.2328536],[106.7597015,-6.2330652],[106.7596285,-6.2334626],[106.7596047,-6.2335919],[106.7596743,-6.2338991],[106.7597739,-6.2341008],[106.7599329,-6.2343176],[106.7600648,-6.2344975],[106.7600648,-6.2347904],[106.7601187,-6.2349309],[106.7602129,-6.2351764],[106.7603631,-6.2353354],[106.7606384,-6.235514],[106.7606775,-6.2357915],[106.7606974,-6.2359173],[106.7606812,-6.2360692],[106.7606074,-6.2362317],[106.7605906,-6.2365699],[106.7607473,-6.2367647],[106.7606657,-6.237586],[106.7605883,-6.2376241],[106.7604576,-6.2377333],[106.76038,-6.2377928],[106.7602337,-6.2379428],[106.7601415,-6.2380888],[106.7600801,-6.2382721],[106.7600532,-6.2383925],[106.760041,-6.2385345],[106.7600495,-6.2388027],[106.7600649,-6.2390563],[106.7601091,-6.239211],[106.760154,-6.2393884],[106.7602458,-6.2397507],[106.7602291,-6.2398995],[106.7601917,-6.2400653],[106.7602182,-6.2401898],[106.7603121,-6.2402776],[106.7603894,-6.2404779],[106.7603872,-6.240523],[106.7603704,-6.2408626],[106.7603508,-6.2410805],[106.7603294,-6.2413176],[106.7603322,-6.2415224],[106.7603397,-6.2420613],[106.7603659,-6.2421365],[106.7604626,-6.2424142],[106.7604832,-6.2424702],[106.7606516,-6.2427336],[106.7607384,-6.2430826],[106.7607617,-6.2431684],[106.7608057,-6.2433997],[106.7607804,-6.2435281],[106.7606713,-6.2439138],[106.7605923,-6.2441777],[106.7605974,-6.2444632],[106.7606162,-6.2448917],[106.7606777,-6.2452461],[106.7606887,-6.2455975],[106.7606325,-6.2459127],[106.760558,-6.2463319],[106.7604424,-6.2467033],[106.7603264,-6.2469179],[106.7602634,-6.2471136],[106.76023,-6.247373],[106.7602603,-6.2474997],[106.7603453,-6.2476325],[106.7604134,-6.248027],[106.7603972,-6.2481461],[106.7603457,-6.2482671],[106.7603255,-6.2482959],[106.7602758,-6.2483837],[106.760251,-6.2484792],[106.7602974,-6.2485743],[106.7603747,-6.24868],[106.760452,-6.2487568],[106.7605438,-6.2488192],[106.7616168,-6.2484576],[106.7617244,-6.2487673],[106.7618512,-6.2491326],[106.7620453,-6.2494086],[106.7622702,-6.2497284],[106.7627589,-6.2499574],[106.7636329,-6.2500552],[106.7637069,-6.2500618],[106.7636874,-6.2498201],[106.7636256,-6.2494896],[106.7635434,-6.2493591],[106.7634016,-6.2491481],[106.7637033,-6.2491024],[106.7642724,-6.2490529],[106.7647205,-6.2489999],[106.7649979,-6.2489645],[106.7666143,-6.2486927],[106.7665515,-6.2484483],[106.7666412,-6.248252],[106.7668154,-6.2480802],[106.7674478,-6.2473634],[106.7677031,-6.2472624],[106.7682676,-6.2475024],[106.7683805,-6.247489],[106.7683717,-6.247199],[106.7683968,-6.2466627],[106.768625,-6.246292],[106.7690122,-6.2462348],[106.7692975,-6.246119],[106.7693634,-6.2459298],[106.7688483,-6.2454856],[106.7686011,-6.245256],[106.7684677,-6.2448462],[106.7683026,-6.2443633],[106.7682731,-6.2439711],[106.7682722,-6.2436086],[106.7681012,-6.243227],[106.7679701,-6.243062],[106.7677732,-6.2428695],[106.7674746,-6.2425235],[106.7670742,-6.2423121],[106.7667328,-6.2421689],[106.7663017,-6.2419993],[106.7657137,-6.2417806],[106.7656309,-6.241503],[106.7656969,-6.24104],[106.7658726,-6.2406706],[106.7658847,-6.2404334],[106.7658966,-6.240262],[106.7660156,-6.2401452],[106.7663677,-6.2400832],[106.7664675,-6.2398997],[106.7666509,-6.2395624],[106.7663503,-6.239385],[106.7661085,-6.2393066],[106.7659681,-6.2389995],[106.7659033,-6.2388557],[106.7661088,-6.2384251],[106.7660528,-6.2382293],[106.7659237,-6.2381611],[106.7657793,-6.2381979],[106.7656681,-6.2383204],[106.7655857,-6.2385757],[106.7655583,-6.2388088],[106.7652065,-6.2389584],[106.7650439,-6.2389732],[106.7646189,-6.2386937],[106.7645854,-6.2382368],[106.7645038,-6.237636],[106.7644982,-6.2375617],[106.7646781,-6.2372819],[106.76479,-6.2371085],[106.764885,-6.2369611],[106.7650871,-6.2367202],[106.765263,-6.2367062],[106.7654782,-6.2367687],[106.7665409,-6.2366717],[106.7670107,-6.2366516],[106.7671887,-6.2358245],[106.7672496,-6.235468],[106.7669296,-6.2343427],[106.7660495,-6.233637],[106.765678,-6.234402],[106.7652292,-6.2346915],[106.7649033,-6.2347569],[106.7647717,-6.2346822],[106.7645838,-6.2342011],[106.7645287,-6.2341048],[106.764309,-6.2337211],[106.7641462,-6.2332875],[106.7642195,-6.233085],[106.7644707,-6.2326662],[106.7647236,-6.2322591],[106.7652858,-6.2319284],[106.7655063,-6.2312509],[106.7661126,-6.2311303],[106.765947,-6.2305727],[106.7659279,-6.2304119],[106.7653981,-6.229849],[106.7649874,-6.2297736],[106.7651216,-6.2293015],[106.7652088,-6.2290092],[106.7650418,-6.2287396],[106.7649218,-6.2284183],[106.7647694,-6.2280746],[106.7647358,-6.2278781],[106.7646133,-6.2277256],[106.764599,-6.2274245],[106.7646831,-6.2272039],[106.7654433,-6.2269437],[106.7658481,-6.2268454],[106.7659864,-6.226669],[106.7661275,-6.226349],[106.766321,-6.2258171],[106.7665311,-6.2257018],[106.7668691,-6.2253658],[106.7669453,-6.2251346],[106.7666458,-6.2247369],[106.766338,-6.2242406],[106.7660367,-6.2238367],[106.7657345,-6.22347],[106.765506,-6.222897],[106.7654823,-6.2224746],[106.7652217,-6.2224776],[106.7647802,-6.2224323],[106.7642093,-6.2224635],[106.7624081,-6.222514],[106.7618969,-6.2225154],[106.7617482,-6.2222029],[106.7612853,-6.2221781],[106.7609063,-6.2221517],[106.7607423,-6.2221565],[106.7605648,-6.2221477],[106.760432,-6.2221391],[106.7602119,-6.2225793],[106.76023,-6.2226725],[106.7603439,-6.2228961],[106.7601907,-6.223246],[106.76022,-6.223454],[106.760366,-6.2234388],[106.7604965,-6.2236093],[106.76056,-6.223669],[106.7605711,-6.2238058],[106.7605525,-6.224032],[106.7604927,-6.2241603],[106.7604816,-6.224184],[106.7603502,-6.2243515],[106.7604182,-6.2244991],[106.760407,-6.2246141],[106.760247,-6.224766],[106.7600942,-6.2248297],[106.760015,-6.225078],[106.760083,-6.225163],[106.760168,-6.2252],[106.760131,-6.2254223],[106.760209,-6.225608],[106.7601727,-6.2259081],[106.7600611,-6.2259279],[106.7598448,-6.2260502],[106.759715,-6.2263151],[106.7591166,-6.2264048],[106.7589348,-6.2265174],[106.7586588,-6.2267823],[106.7586026,-6.2272171],[106.758568,-6.2273975],[106.7585297,-6.2275967],[106.7585063,-6.2276566],[106.7584157,-6.227761],[106.7584182,-6.2278142],[106.7583743,-6.2278613],[106.7583655,-6.2279048],[106.7583596,-6.2279337],[106.7583433,-6.2280448],[106.7583156,-6.2281504]]]
         }
      }
    ]
  }