{ "type": "FeatureCollection",
    "features": [
      { "type": "Feature",
         "geometry": {
           "type": "Polygon",
           "coordinates": 
              [[[106.8685428,-6.3509704],[106.8685706,-6.3511137],[106.8686118,-6.3511754],[106.8687334,-6.3512174],[106.8692467,-6.351238],[106.8692977,-6.3515499],[106.869649,-6.3515899],[106.8696765,-6.3515466],[106.8697168,-6.3514746],[106.8697624,-6.3514653],[106.8698039,-6.351484],[106.8698214,-6.3515386],[106.8697798,-6.3517612],[106.869753,-6.3518572],[106.8697315,-6.3519398],[106.8697205,-6.3520856],[106.8698566,-6.3521915],[106.8703706,-6.3526903],[106.870596,-6.352633],[106.870725,-6.352637],[106.8709708,-6.352661],[106.8712701,-6.352834],[106.8714599,-6.3530217],[106.8715572,-6.3532647],[106.8714581,-6.3533133],[106.8712796,-6.3533223],[106.8711925,-6.3532804],[106.871106,-6.353299],[106.8710711,-6.3533433],[106.8710716,-6.3534856],[106.8711163,-6.353629],[106.8712276,-6.3537327],[106.871439,-6.353763],[106.871647,-6.353739],[106.87181,-6.353729],[106.8719441,-6.3537447],[106.8720523,-6.3537703],[106.8720947,-6.3539527],[106.8721294,-6.354079],[106.8721756,-6.3542063],[106.8722785,-6.3543512],[106.8723944,-6.3544127],[106.8724684,-6.3544654],[106.8724806,-6.3545572],[106.8724645,-6.3546252],[106.8724001,-6.3547998],[106.872384,-6.3549091],[106.8724229,-6.3549998],[106.8725932,-6.355153],[106.8726838,-6.3550497],[106.8728474,-6.3549458],[106.8729874,-6.354913],[106.8731001,-6.3549113],[106.8731334,-6.3550403],[106.8731813,-6.3552377],[106.873221,-6.355432],[106.8732521,-6.3555673],[106.873341,-6.35566],[106.873637,-6.355758],[106.873736,-6.355777],[106.873923,-6.355771],[106.874195,-6.355835],[106.87429,-6.35596],[106.874308,-6.356078],[106.874219,-6.356139],[106.8740564,-6.3562526],[106.8739366,-6.356397],[106.8739182,-6.3564806],[106.8738318,-6.356557],[106.873739,-6.356597],[106.873662,-6.356644],[106.873486,-6.356757],[106.8734076,-6.3568273],[106.8733591,-6.3569216],[106.8732625,-6.3570703],[106.8731353,-6.3571486],[106.8730895,-6.3572346],[106.8730614,-6.3573409],[106.8730501,-6.3574639],[106.8730071,-6.3575712],[106.8728999,-6.3576129],[106.8723188,-6.3578086],[106.8720294,-6.3578246],[106.871977,-6.358033],[106.8719988,-6.3581383],[106.8720305,-6.3582327],[106.8720968,-6.3585003],[106.8721482,-6.3585634],[106.8723488,-6.3586105],[106.8723129,-6.3588405],[106.8718473,-6.359322],[106.8713732,-6.3600437],[106.8717153,-6.3602157],[106.872179,-6.360681],[106.872365,-6.360837],[106.872581,-6.360992],[106.872968,-6.361079],[106.873359,-6.361097],[106.8736638,-6.360948],[106.8738547,-6.3611957],[106.8740821,-6.3613264],[106.874294,-6.361374],[106.874917,-6.361612],[106.8752405,-6.361653],[106.8753732,-6.3616289],[106.8755996,-6.3615735],[106.8758514,-6.3615739],[106.8760449,-6.3615972],[106.8763238,-6.3616304],[106.8765454,-6.3616768],[106.8767214,-6.361635],[106.8768099,-6.3615657],[106.8769064,-6.3615071],[106.8770358,-6.3615415],[106.8772316,-6.3615604],[106.8773415,-6.3614674],[106.8774348,-6.361286],[106.878079,-6.361387],[106.8782314,-6.3610966],[106.8783427,-6.3610499],[106.878442,-6.3610632],[106.8786083,-6.3611059],[106.8788309,-6.3610392],[106.8789462,-6.3610392],[106.8790028,-6.3611127],[106.8790053,-6.3612365],[106.8789355,-6.3612392],[106.8788546,-6.3613404],[106.8788769,-6.3614154],[106.8789771,-6.3614857],[106.8790468,-6.3615977],[106.8790602,-6.3617017],[106.878969,-6.3618003],[106.878867,-6.3618459],[106.8786378,-6.3618549],[106.8784474,-6.3618843],[106.8783602,-6.3619309],[106.8783226,-6.3619789],[106.8784339,-6.3621135],[106.8784661,-6.3622121],[106.8784742,-6.3623454],[106.8783937,-6.3624414],[106.8782086,-6.3625054],[106.8781315,-6.3626007],[106.8780774,-6.3627061],[106.8779786,-6.3629685],[106.8779827,-6.3631258],[106.8780832,-6.3632911],[106.8781597,-6.363439],[106.8782534,-6.3636696],[106.8782735,-6.3637856],[106.8782871,-6.3639002],[106.878326,-6.3639575],[106.8784433,-6.3639902],[106.8785379,-6.3639895],[106.8789058,-6.3638699],[106.8790087,-6.3639173],[106.8791548,-6.3640215],[106.8791909,-6.3642679],[106.8792315,-6.3643808],[106.8792922,-6.3644691],[106.8794606,-6.3645493],[106.8796671,-6.3646293],[106.8798173,-6.3646399],[106.8799192,-6.3645973],[106.8799588,-6.3645153],[106.8799722,-6.3644233],[106.8800325,-6.3643287],[106.8801345,-6.3643087],[106.8802646,-6.3642853],[106.8804718,-6.364299],[106.8806702,-6.3644027],[106.8808003,-6.3645039],[106.8812,-6.363598],[106.881814,-6.363803],[106.882228,-6.363748],[106.882457,-6.363687],[106.882686,-6.363681],[106.882998,-6.363825],[106.8830537,-6.3638576],[106.8833239,-6.364016],[106.883574,-6.364242],[106.8837632,-6.364402],[106.88354,-6.364618],[106.883796,-6.364985],[106.883712,-6.365465],[106.884027,-6.365785],[106.884423,-6.365902],[106.88505,-6.365711],[106.885106,-6.366012],[106.885102,-6.366635],[106.8847678,-6.3667515],[106.8846571,-6.3669254],[106.8844696,-6.3671273],[106.884403,-6.3672446],[106.884387,-6.3674231],[106.8843064,-6.3676098],[106.884167,-6.367867],[106.883888,-6.368243],[106.883543,-6.368731],[106.883377,-6.369066],[106.883383,-6.369672],[106.883419,-6.369933],[106.883648,-6.370395],[106.883493,-6.370679],[106.8831129,-6.3713535],[106.8829948,-6.3716033],[106.8827168,-6.3723823],[106.8831619,-6.3723821],[106.883869,-6.372102],[106.883912,-6.372486],[106.8849357,-6.37249],[106.885956,-6.372606],[106.8874189,-6.3725743],[106.8878063,-6.3708837],[106.8885852,-6.3688694],[106.8891739,-6.3675451],[106.8894347,-6.3681131],[106.8897425,-6.3686223],[106.8932271,-6.3699813],[106.8952278,-6.3711617],[106.8953701,-6.371247],[106.89589,-6.371554],[106.8955684,-6.3695525],[106.8951578,-6.3680386],[106.894515,-6.364474],[106.8939382,-6.3616684],[106.8937339,-6.3606978],[106.893526,-6.3596355],[106.8934115,-6.358964],[106.8932712,-6.358069],[106.8929067,-6.3562755],[106.8925363,-6.3548781],[106.8921417,-6.3533871],[106.891846,-6.3523723],[106.8915311,-6.3513212],[106.890616,-6.3516408],[106.8903588,-6.3517877],[106.8899606,-6.3519756],[106.8895982,-6.3521262],[106.8890019,-6.3522548],[106.8884139,-6.3522123],[106.8866789,-6.3520294],[106.8853472,-6.3518981],[106.8837751,-6.3516818],[106.8829878,-6.3516446],[106.8822942,-6.3516469],[106.8816003,-6.3516543],[106.8814394,-6.3516532],[106.8800536,-6.351612],[106.8796513,-6.3515554],[106.8789647,-6.351355],[106.8785323,-6.3512034],[106.8781159,-6.3508646],[106.8775118,-6.3503623],[106.876973,-6.3499265],[106.8766184,-6.3496817],[106.8768626,-6.3488377],[106.8769505,-6.34847],[106.8769789,-6.3483513],[106.8770659,-6.348117],[106.8774056,-6.3469713],[106.8775362,-6.3464585],[106.877663,-6.3459604],[106.8780519,-6.3444343],[106.87813,-6.343974],[106.8785993,-6.3422602],[106.8790262,-6.3407723],[106.879266,-6.3398428],[106.877721,-6.340068],[106.8769337,-6.3401836],[106.8753579,-6.3404037],[106.8741288,-6.3405258],[106.8739108,-6.3405025],[106.8732955,-6.3399217],[106.8729014,-6.3395877],[106.8727731,-6.3396436],[106.8725736,-6.339669],[106.8723598,-6.3396566],[106.8721873,-6.3396586],[106.8721147,-6.339707],[106.872078,-6.3398065],[106.8721121,-6.3398752],[106.8721805,-6.3399562],[106.8723515,-6.3400455],[106.8724189,-6.3401357],[106.8724681,-6.3402336],[106.872465,-6.3403289],[106.8724194,-6.3403769],[106.8723313,-6.3404554],[106.8721643,-6.3404927],[106.8720296,-6.3404875],[106.8719211,-6.3404357],[106.8717736,-6.340404],[106.8716679,-6.3404406],[106.8715675,-6.3405156],[106.8714974,-6.340629],[106.8714322,-6.340779],[106.8713875,-6.3408852],[106.871455,-6.3409527],[106.8716337,-6.3409677],[106.8718738,-6.341001],[106.8721201,-6.3410826],[106.8720931,-6.3413156],[106.8720912,-6.3414846],[106.8721165,-6.3416616],[106.872171,-6.341785],[106.872255,-6.341822],[106.8724035,-6.3419046],[106.8725133,-6.3419883],[106.8725352,-6.3420506],[106.8725092,-6.342123],[106.8724563,-6.3422849],[106.8724048,-6.3424766],[106.8723272,-6.3425996],[106.8722477,-6.3427706],[106.872197,-6.3429612],[106.8721818,-6.3431975],[106.8721751,-6.3433011],[106.8722466,-6.3434118],[106.872423,-6.343566],[106.8725579,-6.3436123],[106.8726974,-6.343596],[106.8728247,-6.3435013],[106.872954,-6.3434276],[106.8730893,-6.3434556],[106.8732263,-6.3434943],[106.8732925,-6.343559],[106.873255,-6.34373],[106.8732023,-6.3438373],[106.8730046,-6.3440978],[106.8728872,-6.3442891],[106.8728284,-6.344422],[106.8727737,-6.3446262],[106.8726172,-6.344855],[106.8723878,-6.3450889],[106.8721228,-6.3453606],[106.8720361,-6.3454424],[106.8719385,-6.345619],[106.8718269,-6.3457653],[106.8716936,-6.3458166],[106.8714942,-6.3457643],[106.8713889,-6.3457713],[106.8712813,-6.345846],[106.871119,-6.345936],[106.871008,-6.346034],[106.870844,-6.3461766],[106.870619,-6.3462503],[106.8703827,-6.3463003],[106.8702058,-6.3463432],[106.8701804,-6.3464022],[106.8703579,-6.3465572],[106.8704835,-6.3466448],[106.8705087,-6.3467491],[106.8704956,-6.3468794],[106.8704647,-6.346978],[106.8703981,-6.3470646],[106.8702957,-6.3470815],[106.8700731,-6.3470433],[106.8697995,-6.3470327],[106.869686,-6.3470732],[106.8696726,-6.3471499],[106.869795,-6.3472699],[106.8698658,-6.3473516],[106.8698954,-6.3475465],[106.8698802,-6.3477228],[106.8698442,-6.3478303],[106.8698612,-6.3479697],[106.8698746,-6.3481096],[106.8698545,-6.348163],[106.869751,-6.3481047],[106.8696943,-6.3480728],[106.8695633,-6.3481379],[106.869473,-6.3482263],[106.8693684,-6.3482742],[106.8693063,-6.3483513],[106.8691873,-6.3484422],[106.8690467,-6.3484895],[106.8689233,-6.3484414],[106.8688232,-6.3484469],[106.8687723,-6.3484882],[106.8687615,-6.3485895],[106.8688133,-6.3487535],[106.8689465,-6.3488787],[106.8690029,-6.34892],[106.8690507,-6.3490063],[106.8690699,-6.34914],[106.8690645,-6.3492869],[106.8692563,-6.3494344],[106.8693899,-6.3495721],[106.8693911,-6.3497807],[106.8693858,-6.349931],[106.8693261,-6.3500063],[106.8691256,-6.3499523],[106.8689937,-6.349985],[106.8688809,-6.350029],[106.8687965,-6.3501253],[106.8687813,-6.3502949],[106.8686703,-6.3504614],[106.8685428,-6.3509704]]]
         }
      }
    ]
  }