{ "type": "FeatureCollection",
    "features": [
      { "type": "Feature",
         "geometry": {
           "type": "Polygon",
           "coordinates": 
              [[[106.8434833,-6.1685447],[106.8435712,-6.1691572],[106.843629,-6.169586],[106.843645,-6.170181],[106.843731,-6.170799],[106.843813,-6.171541],[106.844027,-6.172221],[106.845088,-6.175194],[106.845484,-6.174944],[106.846103,-6.174943],[106.847558,-6.174865],[106.847963,-6.174835],[106.848162,-6.174857],[106.850143,-6.174716],[106.851803,-6.174558],[106.8522029,-6.174508],[106.8522596,-6.173263],[106.852289,-6.172527],[106.85234,-6.1719457],[106.852375,-6.1706713],[106.852396,-6.1698153],[106.852449,-6.1690523],[106.8523043,-6.1690433],[106.8508068,-6.1689237],[106.8492661,-6.168695],[106.8488051,-6.168156],[106.8474618,-6.1681887],[106.8456957,-6.1681713],[106.8451388,-6.168439],[106.8439711,-6.1685173],[106.8434833,-6.1685447]]]
         }
      }
    ]
  }